{
  "appId": "com.helpinghands.helpinghands",
  "appName": "Helping Hands",
  "bundledWebRuntime": false,
  "linuxAndroidStudioPath": "/usr/bin/android-studio",
  "npmClient": "yarn",
  "webDir": "build",
  "cordova": {},
  "plugins": {
    "GoogleAuth": {
      "scopes": [
        "profile",
        "email"
      ],
      "serverClientId": "585174735892-2p5vgbg70tdfhr4mpbachu9h57llnqqv.apps.googleusercontent.com"
    },
    "SplashScreen": {
      "launchAutoHide": true,
      "backgroundColor": "#f4f4f4",
      "splashFullScreen": false,
      "splashImmersive": false
    }
  }
}
