<svg xmlns="http://www.w3.org/2000/svg" xmlns:xlink="http://www.w3.org/1999/xlink" width="32" height="32" viewBox="0 0 32 32">
    <defs>
        <path id="prefix__a" d="M24.688 16.048C27.918 17.645 30 20.078 30 23c0 5.305-6.862 9-15 9S0 28.305 0 23c0-2.922 2.082-5.355 5.311-6.952.293.597.603 1.193.928 1.782C3.634 19.109 2 20.952 2 23c0 3.866 5.82 7 13 7s13-3.134 13-7c0-2.048-1.634-3.891-4.239-5.172.325-.587.635-1.183.927-1.78zM15 .667c5.16 0 9.333 4.173 9.333 9.333 0 7-9.333 17.333-9.333 17.333S5.667 17 5.667 10C5.667 4.84 9.84.667 15 .667zm0 12.666c-1.84 0-3.333-1.493-3.333-3.333S13.16 6.667 15 6.667 18.333 8.16 18.333 10 16.84 13.333 15 13.333z"/>
    </defs>
    <g fill="none" fill-rule="evenodd" transform="translate(1)">
        <mask id="prefix__b" fill="#fff">
            <use xlink:href="#prefix__a"/>
        </mask>
        <g fill="#FFF" mask="url(#prefix__b)">
            <path d="M0 0H32V32H0z" transform="translate(-1)"/>
        </g>
    </g>
</svg>
