<svg xmlns="http://www.w3.org/2000/svg" xmlns:xlink="http://www.w3.org/1999/xlink" width="56" height="56" viewBox="0 0 56 56">
    <defs>
        <path id="prefix__a" d="M17 .667C7.97.667.667 7.97.667 17 .667 29.25 17 47.333 17 47.333S33.333 29.25 33.333 17C33.333 7.97 26.03.667 17 .667zm0 22.166c-3.22 0-5.833-2.613-5.833-5.833S13.78 11.167 17 11.167 22.833 13.78 22.833 17 20.22 22.833 17 22.833z"/>
    </defs>
    <g fill="none" fill-rule="evenodd" transform="translate(11 4)">
        <mask id="prefix__b" fill="#fff">
            <use xlink:href="#prefix__a"/>
        </mask>
        <g mask="url(#prefix__b)">
            <path fill="#528b94" d="M0 0H56V56H0z" transform="translate(-11 -4)"/>
        </g>
    </g>
</svg>
