<svg xmlns="http://www.w3.org/2000/svg" width="300" height="228" viewBox="0 0 300 228">
    <defs>
        <linearGradient id="prefix__a" x1="50%" x2="50%" y1="100.001%" y2="0%">
            <stop offset="0%" stop-color="gray" stop-opacity=".25"/>
            <stop offset="54%" stop-color="gray" stop-opacity=".12"/>
            <stop offset="100%" stop-color="gray" stop-opacity=".1"/>
        </linearGradient>
        <linearGradient id="prefix__b" x1="49.984%" x2="49.984%" y1="99.984%" y2=".018%">
            <stop offset="0%" stop-color="gray" stop-opacity=".25"/>
            <stop offset="54%" stop-color="gray" stop-opacity=".12"/>
            <stop offset="100%" stop-color="gray" stop-opacity=".1"/>
        </linearGradient>
        <linearGradient id="prefix__c" x1=".02%" x2="100.01%" y1="49.978%" y2="49.978%">
            <stop offset="0%" stop-color="gray" stop-opacity=".25"/>
            <stop offset="54%" stop-color="gray" stop-opacity=".12"/>
            <stop offset="100%" stop-color="gray" stop-opacity=".1"/>
        </linearGradient>
        <linearGradient id="prefix__d" x1="49.992%" x2="49.992%" y1="100.011%" y2=".019%">
            <stop offset="0%" stop-color="gray" stop-opacity=".25"/>
            <stop offset="54%" stop-color="gray" stop-opacity=".12"/>
            <stop offset="100%" stop-color="gray" stop-opacity=".1"/>
        </linearGradient>
        <linearGradient id="prefix__e" x1="49.984%" x2="49.984%" y1="100.004%" y2="-.031%">
            <stop offset="0%" stop-color="gray" stop-opacity=".25"/>
            <stop offset="54%" stop-color="gray" stop-opacity=".12"/>
            <stop offset="100%" stop-color="gray" stop-opacity=".1"/>
        </linearGradient>
        <linearGradient id="prefix__f" x1="49.958%" x2="49.958%" y1="100.082%" y2=".008%">
            <stop offset="0%" stop-color="gray" stop-opacity=".25"/>
            <stop offset="54%" stop-color="gray" stop-opacity=".12"/>
            <stop offset="100%" stop-color="gray" stop-opacity=".1"/>
        </linearGradient>
    </defs>
    <g fill="none" fill-rule="evenodd">
        <path fill="#71C0CC" fill-rule="nonzero" d="M281.957 123.668c-10.543 14.467-7.064 35.117-.97 51.568 2.042 5.507 4.36 11.332 3.302 17.324-1.293 7.325-7.368 12.813-13.683 15.803-11.513 5.448-25.112 4.578-35.41-2.287-8.887-5.924-15.143-15.77-24.202-21.412-15.162-9.439-34.845-5.221-51.72 1.985-11.937 5.098-25.015 11.663-36.648 6.956-8.187-3.312-13.7-11.744-16.6-20.758-1.4-4.351-2.38-9.075-5.17-12.482-1.66-2.025-3.852-3.436-6.106-4.615-20.571-10.772-47.033-4.04-66.977-16.059-13.465-8.116-21.846-23.868-25.328-40.427-3.482-16.56-2.62-34.04-1.233-51.22.985-12.211 2.545-25.259 9.886-34.854C18.862 3.046 31.874-.986 43.51.603c11.636 1.59 22.069 8.052 31.195 15.768 11.416 9.625 21.919 21.708 36.116 25.362 9.67 2.489 19.945.728 29.998-.05 16.804-1.299 33.549.196 50.192 1.884 15.931 1.616 31.974 3.42 47.063 8.718 10.677 3.748 19.141 10.833 29.194 15.676 6.552 3.156 13.762 3.888 19.928 7.965 7.61 5.023 14.489 13.92 12.256 24.598-2.108 10.15-11.895 15.466-17.496 23.144z" opacity=".1"/>
        <g opacity=".5">
            <path stroke="#535461" stroke-width="2" d="M17.771 93.242s.889-26.326 15.132-41.203c5.979-6.242 9.905-14.17 10.944-22.75.486-4.072.598-8.18.334-12.272" transform="translate(212.478 96.41)"/>
            <path fill="#71C0CC" fill-rule="nonzero" d="M53.103 7.594c-.975 2.941-9.124 9.695-9.124 9.695s-2.496-10.29-1.521-13.228c.63-1.902 2.228-3.322 4.19-3.727C48.61-.07 50.639.602 51.97 2.1c1.331 1.497 1.763 3.59 1.132 5.493v.002zM56.5 26.795c-2.425 1.94-12.927 3.183-12.927 3.183s3.5-9.993 5.924-11.93c1.553-1.35 3.72-1.743 5.648-1.02 1.928.721 3.305 2.441 3.587 4.48.283 2.039-.574 4.068-2.233 5.287zM46.89 54.49c-3.064.453-12.767-3.77-12.767-3.77s8.063-6.862 11.127-7.314c1.982-.293 3.97.493 5.215 2.063 1.244 1.57 1.557 3.685.82 5.548s-2.413 3.19-4.395 3.484v-.01zM34.899 73.81c-2.944.964-13.223-1.568-13.223-1.568s6.789-8.124 9.732-9.088c2.943-.967 6.112.635 7.079 3.577.967 2.943-.635 6.112-3.578 7.079h-.01zM32.206 26.841c1.43 2.747 10.559 8.125 10.559 8.125s.83-10.554-.6-13.304c-.925-1.777-2.728-2.925-4.729-3.013-2.001-.088-3.897.899-4.974 2.588-1.077 1.69-1.17 3.824-.246 5.601l-.01.003zM18.469 49.61c2.186 2.195 12.495 4.597 12.495 4.597s-2.367-10.32-4.551-12.514c-2.186-2.194-5.736-2.2-7.93-.015-2.193 2.186-2.2 5.736-.014 7.93v.002zM8.154 73.575c1.783 2.532 11.54 6.644 11.54 6.644s-.587-10.57-2.373-13.104c-1.124-1.71-3.092-2.672-5.133-2.509-2.04.164-3.83 1.427-4.667 3.295-.838 1.868-.591 4.044.644 5.677l-.01-.003z" transform="translate(212.478 96.41)"/>
            <path stroke="#535461" stroke-width="2" d="M20.9 82.346s-8.079-11.752-6.662-22.81c.624-4.633-.272-9.345-2.553-13.426-1.099-1.93-2.371-3.754-3.803-5.451" transform="translate(212.478 96.41)"/>
            <path fill="#71C0CC" fill-rule="nonzero" d="M8.736 33.684c.52 1.594-.854 7.158-.854 7.158s-4.397-3.679-4.917-5.27c-.52-1.594.35-3.308 1.943-3.828 1.594-.52 3.308.35 3.828 1.943v-.003zM16.392 40.952c-.428 1.616-4.607 5.545-4.607 5.545s-1.692-5.477-1.263-7.098c.429-1.622 2.09-2.588 3.712-2.159 1.621.43 2.587 2.091 2.158 3.712zM21.116 56.103c-1.188 1.182-6.776 2.462-6.776 2.462s1.304-5.583 2.494-6.765c.77-.765 1.889-1.061 2.936-.777 1.047.284 1.864 1.105 2.141 2.154.278 1.05-.026 2.167-.795 2.932v-.006zM22.11 68.375c-.973 1.366-6.275 3.566-6.275 3.566s.342-5.723 1.314-7.088c.628-.884 1.68-1.366 2.76-1.264 1.08.102 2.024.772 2.475 1.758.452.986.343 2.139-.285 3.023l.01.005zM5.828 48.781c1.505.738 7.206.145 7.206.145S10 44.063 8.494 43.328c-1.506-.737-3.324-.113-4.06 1.393-.736 1.506-.112 3.324 1.394 4.06zM7.171 63.121c1.66.253 6.921-2.017 6.921-2.017s-4.351-3.732-6.008-3.975c-1.657-.252-3.205.888-3.457 2.545-.253 1.658.887 3.206 2.544 3.458v-.01zM10.387 76.874c1.591.539 7.163-.808 7.163-.808s-3.657-4.413-5.248-4.944c-1.592-.529-3.31.333-3.84 1.924-.528 1.592.333 3.31 1.925 3.84v-.012z" transform="translate(212.478 96.41)"/>
            <path fill="#FFF" fill-rule="nonzero" d="M8.736 33.684c.52 1.594-.854 7.158-.854 7.158s-4.397-3.679-4.917-5.27c-.52-1.594.35-3.308 1.943-3.828 1.594-.52 3.308.35 3.828 1.943v-.003zM16.392 40.952c-.428 1.616-4.607 5.545-4.607 5.545s-1.692-5.477-1.263-7.098c.429-1.622 2.09-2.588 3.712-2.159 1.621.43 2.587 2.091 2.158 3.712zM21.116 56.103c-1.188 1.182-6.776 2.462-6.776 2.462s1.304-5.583 2.494-6.765c.77-.765 1.889-1.061 2.936-.777 1.047.284 1.864 1.105 2.141 2.154.278 1.05-.026 2.167-.795 2.932v-.006zM22.11 68.375c-.973 1.366-6.275 3.566-6.275 3.566s.342-5.723 1.314-7.088c.628-.884 1.68-1.366 2.76-1.264 1.08.102 2.024.772 2.475 1.758.452.986.343 2.139-.285 3.023l.01.005zM5.828 48.781c1.505.738 7.206.145 7.206.145S10 44.063 8.494 43.328c-1.506-.737-3.324-.113-4.06 1.393-.736 1.506-.112 3.324 1.394 4.06zM7.171 63.121c1.66.253 6.921-2.017 6.921-2.017s-4.351-3.732-6.008-3.975c-1.657-.252-3.205.888-3.457 2.545-.253 1.658.887 3.206 2.544 3.458v-.01zM10.387 76.874c1.591.539 7.163-.808 7.163-.808s-3.657-4.413-5.248-4.944c-1.592-.529-3.31.333-3.84 1.924-.528 1.592.333 3.31 1.925 3.84v-.012z" transform="translate(212.478 96.41)"/>
            <path fill="#474059" fill-rule="nonzero" d="M5.952 114.213L28.931 114.213 34.678 79.169 0.207 79.169z" transform="translate(212.478 96.41)"/>
            <path fill="#000" fill-rule="nonzero" d="M4.605 79.169L9.972 111.916 29.308 111.916 28.931 114.213 5.952 114.213 0.207 79.169z" opacity=".1" transform="translate(212.478 96.41)"/>
        </g>
        <path fill="url(#prefix__a)" fill-rule="nonzero" d="M54.205 10.85H222.78699999999998V214.25199999999998H54.205z"/>
        <path fill="#FFF" fill-rule="nonzero" d="M56.359 13.452H220.632V211.657H56.359z"/>
        <path fill="#C0BCCF" fill-rule="nonzero" d="M120.183 35.803H186.431V39.035H120.183zM120.183 46.037H186.431V49.269H120.183z"/>
        <path fill="#71C0CC" fill-rule="nonzero" d="M136.072 56.27H170.542V59.502H136.072z"/>
        <path fill="#C0BCCF" fill-rule="nonzero" d="M120.183 100.705H186.431V103.937H120.183zM120.183 110.938H186.431V114.17H120.183z" opacity=".5"/>
        <path fill="#71C0CC" fill-rule="nonzero" d="M136.072 121.171H170.542V124.403H136.072z" opacity=".5"/>
        <path fill="#C0BCCF" fill-rule="nonzero" d="M120.183 165.606H186.431V168.838H120.183zM120.183 175.839H186.431V179.071H120.183z" opacity=".5"/>
        <path fill="#71C0CC" fill-rule="nonzero" d="M136.072 186.073H170.542V189.305H136.072z" opacity=".5"/>
        <g fill-rule="nonzero" opacity=".5" transform="translate(65.17 93.986)">
            <path fill="#C0BCCF" d="M36.7 18.566c.008 4.372-1.557 8.601-4.408 11.916-.14.164-.286.326-.434.485-.073.082-.149.163-.226.242-.607.639-1.26 1.232-1.955 1.775l-.049.035c-1.073.84-2.238 1.556-3.474 2.133-.634.298-1.285.558-1.95.78l-.244.079c-.151.05-.307.097-.46.14l-.063.019c-3.304.944-6.807.944-10.112 0h-.027c-.27-.078-.539-.16-.786-.248l-.23-.08c-.87-.308-1.717-.682-2.53-1.121l-.052-.027c-1.293-.7-2.497-1.553-3.587-2.54l-.089-.083c-.556-.504-1.079-1.044-1.564-1.616-.065-.073-.127-.148-.189-.223-.118-.14-.232-.286-.345-.431-4.911-6.322-5.146-15.102-.58-21.678C7.91 1.547 16.218-1.302 23.858 1.09 31.5 3.482 36.7 10.56 36.7 18.566z"/>
            <path fill="url(#prefix__b)" d="M31.689 24.743l-1.39-.625c.021-.21.03-.423.027-.635.01-.18.01-.36 0-.539-.137-1.416-1.04-2.65-1.678-3.945-.584-1.182-.955-2.459-1.096-3.77-.17-1.616 0-3.29-.592-4.81-.482-1.225-1.436-2.248-2.456-3.153-1.146-1.075-2.485-1.924-3.946-2.502-1.492-.539-3.207-.676-4.699-.127-1.346.496-2.383 1.484-3.385 2.446-.727.64-1.37 1.372-1.912 2.176-.611 1.001-.873 2.154-1.077 3.29-.322 1.82-.543 3.656-.663 5.5-.105 1.537-.269 3.282-1.583 4.225-.641.46-1.543.719-1.837 1.416-.083.21-.116.436-.097.66-.008.187.006.374.04.558.02.107.041.212.068.32-.377.937-.694 1.898-.948 2.876-.197.727-.377 1.44-.539 2.133h.668l2.51.06h.035l2.693.061h.014l2.51.06h.061l.725.05h.237l10.037.232h.053l.668.016h.235l2.009.046 2.962.067h.021l2.23.054H32.29l-.118-2.337c.49-3.58-.482-3.803-.482-3.803zm-11.276-.285c0 1.982-2.122 4.408-2.122 4.408l-2.136-2.908.078-.113 2.058 2.8s2.122-2.423 2.122-4.408c.05-.1.106-.198.17-.29l.048.15c-.081.115-.154.235-.218.36zm3.264 7.777c0-.1 0-.202-.019-.301-.019-.1-.016-.189-.03-.286l-.037-.288c-.014-.097-.033-.191-.052-.288-.018-.097-.037-.191-.059-.288 0-.033-.013-.062-.021-.097-.03-.127-.062-.253-.097-.38s-.057-.205-.09-.304c0-.046-.026-.092-.042-.135-.016-.043-.046-.145-.07-.218l-.049-.14c-.021-.062-.043-.127-.067-.189-.04-.113-.083-.223-.127-.336-.043-.113-.088-.224-.134-.334-.092-.226-.191-.45-.291-.676-.39-.873-.83-1.732-1.233-2.583-.217-.445-.41-.902-.577-1.368l-.05.068c-.083.115-.155.237-.22.363 0 1.982-2.121 4.409-2.121 4.409l-2.136-2.909-1.869 2.693c-.269.135-.538.593-.748 1.244-.06.175-.116.37-.17.571-.038.138-.073.27-.105.423-.019.073-.035.145-.051.22l-.049.23v.035c-.032.156-.064.318-.094.482-.03.164-.065.353-.094.538-.022.117-.04.233-.057.348-.037.223-.07.45-.102.676l-.054.39-.065.501c.138.412.291.808.45 1.223.101.217.16.452.175.692 3.313.883 6.8.883 10.112 0v-.024c-.05-.226-.07-.456-.064-.687.054-.647.144-1.291.27-1.928.039-.315.056-.631.05-.948v-.113c-.008-.103-.01-.194-.013-.283v-.003zm0 0c0-.1 0-.202-.019-.301-.019-.1-.016-.189-.03-.286l-.037-.288c-.014-.097-.033-.191-.052-.288-.018-.097-.037-.191-.059-.288 0-.033-.013-.062-.021-.097-.03-.127-.062-.253-.097-.38s-.057-.205-.09-.304c0-.046-.026-.092-.042-.135-.016-.043-.046-.145-.07-.218l-.049-.14c-.021-.062-.043-.127-.067-.189-.04-.113-.083-.223-.127-.336-.043-.113-.088-.224-.134-.334-.092-.226-.191-.45-.291-.676-.39-.873-.83-1.732-1.233-2.583-.217-.445-.41-.902-.577-1.368l-.05.068c-.083.115-.155.237-.22.363 0 1.982-2.121 4.409-2.121 4.409l-2.136-2.909-1.869 2.693c-.269.135-.538.593-.748 1.244-.06.175-.116.37-.17.571-.038.138-.073.27-.105.423-.019.073-.035.145-.051.22l-.049.23v.035c-.032.156-.064.318-.094.482-.03.164-.065.353-.094.538-.022.117-.04.233-.057.348-.037.223-.07.45-.102.676l-.054.39-.065.501c.138.412.291.808.45 1.223.101.217.16.452.175.692 3.313.883 6.8.883 10.112 0v-.024c-.05-.226-.07-.456-.064-.687.054-.647.144-1.291.27-1.928.039-.315.056-.631.05-.948v-.113c-.008-.103-.01-.194-.013-.283v-.003zm0 0c0-.1 0-.202-.019-.301-.019-.1-.016-.189-.03-.286l-.037-.288c-.014-.097-.033-.191-.052-.288-.018-.097-.037-.191-.059-.288 0-.033-.013-.062-.021-.097-.03-.127-.062-.253-.097-.38s-.057-.205-.09-.304c0-.046-.026-.092-.042-.135-.016-.043-.046-.145-.07-.218l-.049-.14c-.021-.062-.043-.127-.067-.189-.04-.113-.083-.223-.127-.336-.043-.113-.088-.224-.134-.334-.092-.226-.191-.45-.291-.676-.39-.873-.83-1.732-1.233-2.583-.217-.445-.41-.902-.577-1.368l-.05.068c-.083.115-.155.237-.22.363 0 1.982-2.121 4.409-2.121 4.409l-2.136-2.909-1.869 2.693c-.269.135-.538.593-.748 1.244-.06.175-.116.37-.17.571-.038.138-.073.27-.105.423-.019.073-.035.145-.051.22l-.049.23v.035c-.032.156-.064.318-.094.482-.03.164-.065.353-.094.538-.022.117-.04.233-.057.348-.037.223-.07.45-.102.676l-.054.39-.065.501c.138.412.291.808.45 1.223.101.217.16.452.175.692 3.313.883 6.8.883 10.112 0v-.024c-.05-.226-.07-.456-.064-.687.054-.647.144-1.291.27-1.928.039-.315.056-.631.05-.948v-.113c-.008-.103-.01-.194-.013-.283v-.003zm0 0c0-.1 0-.202-.019-.301-.019-.1-.016-.189-.03-.286l-.037-.288c-.014-.097-.033-.191-.052-.288-.018-.097-.037-.191-.059-.288 0-.033-.013-.062-.021-.097-.03-.127-.062-.253-.097-.38s-.057-.205-.09-.304c0-.046-.026-.092-.042-.135-.016-.043-.046-.145-.07-.218l-.049-.14c-.021-.062-.043-.127-.067-.189-.04-.113-.083-.223-.127-.336-.043-.113-.088-.224-.134-.334-.092-.226-.191-.45-.291-.676-.39-.873-.83-1.732-1.233-2.583-.217-.445-.41-.902-.577-1.368l-.05.068c-.083.115-.155.237-.22.363 0 1.982-2.121 4.409-2.121 4.409l-2.136-2.909-1.869 2.693c-.269.135-.538.593-.748 1.244-.06.175-.116.37-.17.571-.038.138-.073.27-.105.423-.019.073-.035.145-.051.22l-.049.23v.035c-.032.156-.064.318-.094.482-.03.164-.065.353-.094.538-.022.117-.04.233-.057.348-.037.223-.07.45-.102.676l-.054.39-.065.501c.138.412.291.808.45 1.223.101.217.16.452.175.692 3.313.883 6.8.883 10.112 0v-.024c-.05-.226-.07-.456-.064-.687.054-.647.144-1.291.27-1.928.039-.315.056-.631.05-.948v-.113c-.008-.103-.01-.194-.013-.283v-.003z"/>
            <path fill="#493545" d="M11.386 13.452H23.774V21.8H11.386z"/>
            <path fill="#C77485" d="M25.831 22.659l-5.184 7.303-5.418-.471s-7.07.469-2.356-4.947c2.264-2.604 3.005-4.775 3.164-6.323.172-1.675-.337-2.629-.337-2.629l5.89-.705c-.266.794-.3 1.647-.097 2.459.738 3.059 4.338 5.313 4.338 5.313z"/>
            <path fill="#000" d="M21.49 17.338c-1.56 1.18-3.604 1.51-5.456.877.172-1.675-.337-2.628-.337-2.628l5.89-.705c-.265.792-.299 1.644-.097 2.456z" opacity=".1"/>
            <circle cx="17.938" cy="12.407" r="5.89" fill="#C77485"/>
            <path fill="#000" d="M25.616 22.96l-.138-.538-.118-.474-.175-.7-.032-.13-.027-.107s.14-.423-.784-.286l-.172.03c-.146.03-.315.07-.51.124l-.174.054-.232.072c-.733.24-1.402.643-1.955 1.18-.248.237-.468.503-.654.792-.02.027-.033.05-.049.072-.064.1-.12.205-.17.313 0 2.122-2.122 4.713-2.122 4.713l-2.07-2.992-.041-.06-.493-.716-.175-.232-.06-.08-1.076-1.447-.27-.36-.088-.122-.132-.175-.31-.412-1.212.709-1.616.942-.942 6.127v.17l.03.506.196 3.328v.046L9.7 34.686l.051.027c.814.438 1.66.813 2.532 1.12l.229.08c.269.09.522.17.786.249.01.04.017.08.022.12v-.115c3.304.944 6.807.944 10.112 0l.062-.019c.153-.043.31-.089.46-.14l.245-.078c.665-.222 1.316-.483 1.95-.781l.226-4.82.162-3.477v-.2l-.921-3.691z" opacity=".1"/>
            <path fill="#FFF" d="M23.677 31.915c0-.108 0-.216-.019-.323-.019-.108-.016-.202-.03-.305l-.037-.307c-.014-.102-.033-.204-.052-.307-.018-.102-.037-.204-.059-.307 0-.035-.013-.067-.021-.102-.03-.135-.062-.27-.097-.407-.035-.137-.057-.218-.09-.326 0-.048-.026-.097-.042-.142-.016-.046-.046-.157-.07-.235l-.049-.15c-.021-.068-.043-.135-.067-.202-.04-.122-.083-.24-.127-.361-.043-.121-.088-.24-.134-.358-.092-.243-.191-.482-.291-.722-.39-.932-.83-1.85-1.233-2.76-.218-.478-.41-.966-.577-1.463l-.05.073c-.083.124-.156.253-.22.388 0 2.12-2.121 4.712-2.121 4.712l-2.136-3.11-1.869 2.874c-.269.142-.538.632-.748 1.33-.06.188-.116.393-.17.611-.038.146-.073.3-.105.453-.019.078-.035.156-.051.237l-.049.245v.037c-.032.167-.064.34-.094.515s-.065.377-.094.568c-.022.124-.04.248-.057.372-.037.24-.07.482-.102.721-.019.14-.038.27-.054.418l-.065.538c.138.442.291.878.45 1.306.102.235.161.486.175.741 3.305.944 6.808.944 10.112 0v-.027c-.05-.242-.071-.488-.064-.735.054-.691.144-1.379.27-2.06.039-.336.056-.675.05-1.013v-.121c-.008-.102-.01-.2-.013-.296zm0 0c0-.108 0-.216-.019-.323-.019-.108-.016-.202-.03-.305l-.037-.307c-.014-.102-.033-.204-.052-.307-.018-.102-.037-.204-.059-.307 0-.035-.013-.067-.021-.102-.03-.135-.062-.27-.097-.407-.035-.137-.057-.218-.09-.326 0-.048-.026-.097-.042-.142-.016-.046-.046-.157-.07-.235l-.049-.15c-.021-.068-.043-.135-.067-.202-.04-.122-.083-.24-.127-.361-.043-.121-.088-.24-.134-.358-.092-.243-.191-.482-.291-.722-.39-.932-.83-1.85-1.233-2.76-.218-.478-.41-.966-.577-1.463l-.05.073c-.083.124-.156.253-.22.388 0 2.12-2.121 4.712-2.121 4.712l-2.136-3.11-1.869 2.874c-.269.142-.538.632-.748 1.33-.06.188-.116.393-.17.611-.038.146-.073.3-.105.453-.019.078-.035.156-.051.237l-.049.245v.037c-.032.167-.064.34-.094.515s-.065.377-.094.568c-.022.124-.04.248-.057.372-.037.24-.07.482-.102.721-.019.14-.038.27-.054.418l-.065.538c.138.442.291.878.45 1.306.102.235.161.486.175.741 3.305.944 6.808.944 10.112 0v-.027c-.05-.242-.071-.488-.064-.735.054-.691.144-1.379.27-2.06.039-.336.056-.675.05-1.013v-.121c-.008-.102-.01-.2-.013-.296zm0 0c0-.108 0-.216-.019-.323-.019-.108-.016-.202-.03-.305l-.037-.307c-.014-.102-.033-.204-.052-.307-.018-.102-.037-.204-.059-.307 0-.035-.013-.067-.021-.102-.03-.135-.062-.27-.097-.407-.035-.137-.057-.218-.09-.326 0-.048-.026-.097-.042-.142-.016-.046-.046-.157-.07-.235l-.049-.15c-.021-.068-.043-.135-.067-.202-.04-.122-.083-.24-.127-.361-.043-.121-.088-.24-.134-.358-.092-.243-.191-.482-.291-.722-.39-.932-.83-1.85-1.233-2.76-.218-.478-.41-.966-.577-1.463l-.05.073c-.083.124-.156.253-.22.388 0 2.12-2.121 4.712-2.121 4.712l-2.136-3.11-1.869 2.874c-.269.142-.538.632-.748 1.33-.06.188-.116.393-.17.611-.038.146-.073.3-.105.453-.019.078-.035.156-.051.237l-.049.245v.037c-.032.167-.064.34-.094.515s-.065.377-.094.568c-.022.124-.04.248-.057.372-.037.24-.07.482-.102.721-.019.14-.038.27-.054.418l-.065.538c.138.442.291.878.45 1.306.102.235.161.486.175.741 3.305.944 6.808.944 10.112 0v-.027c-.05-.242-.071-.488-.064-.735.054-.691.144-1.379.27-2.06.039-.336.056-.675.05-1.013v-.121c-.008-.102-.01-.2-.013-.296zm2.854-5.055l-.961-3.838-.164-.657-.046-.18-.234-.937v-.024c.005-.042-.001-.084-.02-.122-.034-.07-.123-.142-.33-.161-.08-.006-.159-.006-.237 0-.234.023-.466.066-.693.129-.11.03-.228.062-.355.102l-.232.073h-.021c-.62.204-1.196.524-1.697.943-.33.275-.62.596-.861.953l-.052.073c-.082.124-.154.253-.218.387 0 2.12-2.122 4.713-2.122 4.713l-2.135-3.11-.122-.175-.021-.03-.31-.455-.234-.312-.062-.081-1.104-1.473-.35-.477v-.016l-.121-.164-.232-.307-.808.47-2.02 1.178-.931 6.062v.064l.026.442.2 3.374v.192l-.305 1.214c.814.439 1.66.813 2.532 1.12l.229.081c.269.089.522.17.786.248.01.04.017.08.022.121v-.116c3.304.945 6.807.945 10.112 0l.062-.019c.153-.043.31-.088.46-.14l.245-.078c.665-.222 1.316-.483 1.95-.78l.224-4.816.161-3.439-.01-.032zm-13.244 9.299c.01.04.017.08.022.121v-.116l-.022-.005zm10.39-4.244c0-.108 0-.216-.019-.323-.019-.108-.016-.202-.03-.305l-.037-.307c-.014-.102-.033-.204-.052-.307-.018-.102-.037-.204-.059-.307 0-.035-.013-.067-.021-.102-.03-.135-.062-.27-.097-.407-.035-.137-.057-.218-.09-.326 0-.048-.026-.097-.042-.142-.016-.046-.046-.157-.07-.235l-.049-.15c-.021-.068-.043-.135-.067-.202-.04-.122-.083-.24-.127-.361-.043-.121-.088-.24-.134-.358-.092-.243-.191-.482-.291-.722-.39-.932-.83-1.85-1.233-2.76-.218-.478-.41-.966-.577-1.463l-.05.073c-.083.124-.156.253-.22.388 0 2.12-2.121 4.712-2.121 4.712l-2.136-3.11-1.869 2.874c-.269.142-.538.632-.748 1.33-.06.188-.116.393-.17.611-.038.146-.073.3-.105.453-.019.078-.035.156-.051.237l-.049.245v.037c-.032.167-.064.34-.094.515s-.065.377-.094.568c-.022.124-.04.248-.057.372-.037.24-.07.482-.102.721-.019.14-.038.27-.054.418l-.065.538c.138.442.291.878.45 1.306.102.235.161.486.175.741 3.305.944 6.808.944 10.112 0v-.027c-.05-.242-.071-.488-.064-.735.054-.691.144-1.379.27-2.06.039-.336.056-.675.05-1.013v-.121c-.008-.102-.01-.2-.013-.296zm0 0c0-.108 0-.216-.019-.323-.019-.108-.016-.202-.03-.305l-.037-.307c-.014-.102-.033-.204-.052-.307-.018-.102-.037-.204-.059-.307 0-.035-.013-.067-.021-.102-.03-.135-.062-.27-.097-.407-.035-.137-.057-.218-.09-.326 0-.048-.026-.097-.042-.142-.016-.046-.046-.157-.07-.235l-.049-.15c-.021-.068-.043-.135-.067-.202-.04-.122-.083-.24-.127-.361-.043-.121-.088-.24-.134-.358-.092-.243-.191-.482-.291-.722-.39-.932-.83-1.85-1.233-2.76-.218-.478-.41-.966-.577-1.463l-.05.073c-.083.124-.156.253-.22.388 0 2.12-2.121 4.712-2.121 4.712l-2.136-3.11-1.869 2.874c-.269.142-.538.632-.748 1.33-.06.188-.116.393-.17.611-.038.146-.073.3-.105.453-.019.078-.035.156-.051.237l-.049.245v.037c-.032.167-.064.34-.094.515s-.065.377-.094.568c-.022.124-.04.248-.057.372-.037.24-.07.482-.102.721-.019.14-.038.27-.054.418l-.065.538c.138.442.291.878.45 1.306.102.235.161.486.175.741 3.305.944 6.808.944 10.112 0v-.027c-.05-.242-.071-.488-.064-.735.054-.691.144-1.379.27-2.06.039-.336.056-.675.05-1.013v-.121c-.008-.102-.01-.2-.013-.296zm0 0c0-.108 0-.216-.019-.323-.019-.108-.016-.202-.03-.305l-.037-.307c-.014-.102-.033-.204-.052-.307-.018-.102-.037-.204-.059-.307 0-.035-.013-.067-.021-.102-.03-.135-.062-.27-.097-.407-.035-.137-.057-.218-.09-.326 0-.048-.026-.097-.042-.142-.016-.046-.046-.157-.07-.235l-.049-.15c-.021-.068-.043-.135-.067-.202-.04-.122-.083-.24-.127-.361-.043-.121-.088-.24-.134-.358-.092-.243-.191-.482-.291-.722-.39-.932-.83-1.85-1.233-2.76-.218-.478-.41-.966-.577-1.463l-.05.073c-.083.124-.156.253-.22.388 0 2.12-2.121 4.712-2.121 4.712l-2.136-3.11-1.869 2.874c-.269.142-.538.632-.748 1.33-.06.188-.116.393-.17.611-.038.146-.073.3-.105.453-.019.078-.035.156-.051.237l-.049.245v.037c-.032.167-.064.34-.094.515s-.065.377-.094.568c-.022.124-.04.248-.057.372-.037.24-.07.482-.102.721-.019.14-.038.27-.054.418l-.065.538c.138.442.291.878.45 1.306.102.235.161.486.175.741 3.305.944 6.808.944 10.112 0v-.027c-.05-.242-.071-.488-.064-.735.054-.691.144-1.379.27-2.06.039-.336.056-.675.05-1.013v-.121c-.008-.102-.01-.2-.013-.296zm0 0c0-.108 0-.216-.019-.323-.019-.108-.016-.202-.03-.305l-.037-.307c-.014-.102-.033-.204-.052-.307-.018-.102-.037-.204-.059-.307 0-.035-.013-.067-.021-.102-.03-.135-.062-.27-.097-.407-.035-.137-.057-.218-.09-.326 0-.048-.026-.097-.042-.142-.016-.046-.046-.157-.07-.235l-.049-.15c-.021-.068-.043-.135-.067-.202-.04-.122-.083-.24-.127-.361-.043-.121-.088-.24-.134-.358-.092-.243-.191-.482-.291-.722-.39-.932-.83-1.85-1.233-2.76-.218-.478-.41-.966-.577-1.463l-.05.073c-.083.124-.156.253-.22.388 0 2.12-2.121 4.712-2.121 4.712l-2.136-3.11-1.869 2.874c-.269.142-.538.632-.748 1.33-.06.188-.116.393-.17.611-.038.146-.073.3-.105.453-.019.078-.035.156-.051.237l-.049.245v.037c-.032.167-.064.34-.094.515s-.065.377-.094.568c-.022.124-.04.248-.057.372-.037.24-.07.482-.102.721-.019.14-.038.27-.054.418l-.065.538c.138.442.291.878.45 1.306.102.235.161.486.175.741 3.305.944 6.808.944 10.112 0v-.027c-.05-.242-.071-.488-.064-.735.054-.691.144-1.379.27-2.06.039-.336.056-.675.05-1.013v-.121c-.008-.102-.01-.2-.013-.296zm0 0c0-.108 0-.216-.019-.323-.019-.108-.016-.202-.03-.305l-.037-.307c-.014-.102-.033-.204-.052-.307-.018-.102-.037-.204-.059-.307 0-.035-.013-.067-.021-.102-.03-.135-.062-.27-.097-.407-.035-.137-.057-.218-.09-.326 0-.048-.026-.097-.042-.142-.016-.046-.046-.157-.07-.235l-.049-.15c-.021-.068-.043-.135-.067-.202-.04-.122-.083-.24-.127-.361-.043-.121-.088-.24-.134-.358-.092-.243-.191-.482-.291-.722-.39-.932-.83-1.85-1.233-2.76-.218-.478-.41-.966-.577-1.463l-.05.073c-.083.124-.156.253-.22.388 0 2.12-2.121 4.712-2.121 4.712l-2.136-3.11-1.869 2.874c-.269.142-.538.632-.748 1.33-.06.188-.116.393-.17.611-.038.146-.073.3-.105.453-.019.078-.035.156-.051.237l-.049.245v.037c-.032.167-.064.34-.094.515s-.065.377-.094.568c-.022.124-.04.248-.057.372-.037.24-.07.482-.102.721-.019.14-.038.27-.054.418l-.065.538c.138.442.291.878.45 1.306.102.235.161.486.175.741 3.305.944 6.808.944 10.112 0v-.027c-.05-.242-.071-.488-.064-.735.054-.691.144-1.379.27-2.06.039-.336.056-.675.05-1.013v-.121c-.008-.102-.01-.2-.013-.296zm0 0c0-.108 0-.216-.019-.323-.019-.108-.016-.202-.03-.305l-.037-.307c-.014-.102-.033-.204-.052-.307-.018-.102-.037-.204-.059-.307 0-.035-.013-.067-.021-.102-.03-.135-.062-.27-.097-.407-.035-.137-.057-.218-.09-.326 0-.048-.026-.097-.042-.142-.016-.046-.046-.157-.07-.235l-.049-.15c-.021-.068-.043-.135-.067-.202-.04-.122-.083-.24-.127-.361-.043-.121-.088-.24-.134-.358-.092-.243-.191-.482-.291-.722-.39-.932-.83-1.85-1.233-2.76-.218-.478-.41-.966-.577-1.463l-.05.073c-.083.124-.156.253-.22.388 0 2.12-2.121 4.712-2.121 4.712l-2.136-3.11-1.869 2.874c-.269.142-.538.632-.748 1.33-.06.188-.116.393-.17.611-.038.146-.073.3-.105.453-.019.078-.035.156-.051.237l-.049.245v.037c-.032.167-.064.34-.094.515s-.065.377-.094.568c-.022.124-.04.248-.057.372-.037.24-.07.482-.102.721-.019.14-.038.27-.054.418l-.065.538c.138.442.291.878.45 1.306.102.235.161.486.175.741 3.305.944 6.808.944 10.112 0v-.027c-.05-.242-.071-.488-.064-.735.054-.691.144-1.379.27-2.06.039-.336.056-.675.05-1.013v-.121c-.008-.102-.01-.2-.013-.296zm0 0c0-.108 0-.216-.019-.323-.019-.108-.016-.202-.03-.305l-.037-.307c-.014-.102-.033-.204-.052-.307-.018-.102-.037-.204-.059-.307 0-.035-.013-.067-.021-.102-.03-.135-.062-.27-.097-.407-.035-.137-.057-.218-.09-.326 0-.048-.026-.097-.042-.142-.016-.046-.046-.157-.07-.235l-.049-.15c-.021-.068-.043-.135-.067-.202-.04-.122-.083-.24-.127-.361-.043-.121-.088-.24-.134-.358-.092-.243-.191-.482-.291-.722-.39-.932-.83-1.85-1.233-2.76-.218-.478-.41-.966-.577-1.463l-.05.073c-.083.124-.156.253-.22.388 0 2.12-2.121 4.712-2.121 4.712l-2.136-3.11-1.869 2.874c-.269.142-.538.632-.748 1.33-.06.188-.116.393-.17.611-.038.146-.073.3-.105.453-.019.078-.035.156-.051.237l-.049.245v.037c-.032.167-.064.34-.094.515s-.065.377-.094.568c-.022.124-.04.248-.057.372-.037.24-.07.482-.102.721-.019.14-.038.27-.054.418l-.065.538c.138.442.291.878.45 1.306.102.235.161.486.175.741 3.305.944 6.808.944 10.112 0v-.027c-.05-.242-.071-.488-.064-.735.054-.691.144-1.379.27-2.06.039-.336.056-.675.05-1.013v-.121c-.008-.102-.01-.2-.013-.296zm0 0c0-.108 0-.216-.019-.323-.019-.108-.016-.202-.03-.305l-.037-.307c-.014-.102-.033-.204-.052-.307-.018-.102-.037-.204-.059-.307 0-.035-.013-.067-.021-.102-.03-.135-.062-.27-.097-.407-.035-.137-.057-.218-.09-.326 0-.048-.026-.097-.042-.142-.016-.046-.046-.157-.07-.235l-.049-.15c-.021-.068-.043-.135-.067-.202-.04-.122-.083-.24-.127-.361-.043-.121-.088-.24-.134-.358-.092-.243-.191-.482-.291-.722-.39-.932-.83-1.85-1.233-2.76-.218-.478-.41-.966-.577-1.463l-.05.073c-.083.124-.156.253-.22.388 0 2.12-2.121 4.712-2.121 4.712l-2.136-3.11-1.869 2.874c-.269.142-.538.632-.748 1.33-.06.188-.116.393-.17.611-.038.146-.073.3-.105.453-.019.078-.035.156-.051.237l-.049.245v.037c-.032.167-.064.34-.094.515s-.065.377-.094.568c-.022.124-.04.248-.057.372-.037.24-.07.482-.102.721-.019.14-.038.27-.054.418l-.065.538c.138.442.291.878.45 1.306.102.235.161.486.175.741 3.305.944 6.808.944 10.112 0v-.027c-.05-.242-.071-.488-.064-.735.054-.691.144-1.379.27-2.06.039-.336.056-.675.05-1.013v-.121c-.008-.102-.01-.2-.013-.296z"/>
            <path fill="#000" d="M16.193 25.02l-.18-.024c-.273-.036-.543-.09-.808-.161l-.1-.027c-.657-.186-1.376-.52-1.538-1.107-.048-.189-.042-.388.016-.574.09-.32.214-.63.367-.926v-.016c.02-.042.042-.082.067-.121.222-.435.558-.8.972-1.059l-.323.052-2.736.444-4.241.684s-.755-.15-1.78 2.677c0 .035-.025.067-.036.105-.247.692-.509 1.556-.778 2.636-.186.749-.355 1.484-.512 2.198-.045.215-.091.428-.134.638.485.572 1.008 1.112 1.564 1.616l.09.083c1.09.987 2.293 1.84 3.586 2.54l.052.027c.813.438 1.66.813 2.531 1.12l.229.08c.048-.497.102-1.05.167-1.615 0-.057 0-.113.021-.17l.065-.538c.016-.138.035-.27.054-.418.032-.24.065-.482.102-.721.016-.124.035-.248.057-.372.03-.191.062-.382.094-.568.032-.186.062-.348.094-.515v-.037l.049-.245c.016-.081.032-.16.05-.237.033-.154.068-.307.106-.453.054-.218.11-.423.17-.611.215-.698.466-1.188.748-1.33l1.87-2.874.077-.121.035-.054-.067-.005z" opacity=".1"/>
            <path fill="#444176" d="M16.034 25.026l-1.985 3.049c-.269.137-.522.614-.735 1.29-.062.199-.124.417-.183.646-.268 1.163-.471 2.34-.609 3.525 0 .054 0 .108-.021.161-.092.75-.167 1.484-.229 2.133-.872-.307-1.718-.681-2.531-1.12l-.052-.027c-1.293-.7-2.497-1.552-3.587-2.54l-.089-.083c-.556-.504-1.079-1.043-1.564-1.616-.065-.072-.127-.148-.189-.223l.092-.42c.153-.714.323-1.446.509-2.192.245-1.023.55-2.03.915-3.017.01-.029.022-.058.035-.086.954-2.453 1.64-2.316 1.64-2.316l4.479-.721 2.828-.458-.09.05c-.311.223-.576.505-.778.83l-.078.132c-.032.052-.062.108-.094.165-.157.3-.281.616-.372.942-.083.255-.06.533.065.77.27.523 1.034.808 1.662.964l.105.027c.282.064.568.109.856.135z"/>
            <path fill="#000" d="M31.597 30.469l-.11-2.392c.47-3.77-.472-4.004-.472-4.004l-1.12-.539h-.03L25.36 21.35l-.175-.086-.054-.024-.587-.286-.372-.18-.694-.337-.235-.113V21.26c0 .269.025.584.046.95.049.921.137 2.155.296 3.609.09.843.202 1.764.342 2.752.084.584.143 1.166.18 1.734.122 1.914.062 3.834-.177 5.736l.245-.078c.665-.222 1.316-.483 1.95-.78 1.235-.577 2.4-1.293 3.474-2.134l.048-.035c.695-.542 1.348-1.136 1.955-1.774l-.005-.77z" opacity=".1"/>
            <path fill="#444176" d="M31.834 30.469l-.11-2.397c.47-3.77-.472-4.005-.472-4.005l-1.346-.651h-.027l-4.519-2.192-.207-.1-.04-.019-.332-.162-.439-.212-.867-.42v.856c0 .27.024.622.048 1.023.046.86.127 1.985.27 3.323.097.919.218 1.94.377 3.038.082.587.141 1.168.177 1.743.12 1.886.064 3.779-.167 5.655.665-.222 1.316-.483 1.95-.781 1.236-.576 2.401-1.292 3.474-2.133l.049-.035c.694-.543 1.347-1.136 1.955-1.775.079-.079.154-.16.226-.242v-.514z"/>
            <path fill="#000" d="M12.792 5.946c-.27.372-.248.883-.37 1.347-.287 1.053-1.43 1.712-1.69 2.773-.154.62.024 1.277-.081 1.907-.191 1.16-1.252 1.947-1.845 2.962-.608 1.06-.699 2.34-.245 3.474.139.283.253.576.342.878.068.45.04.909-.083 1.347-.202.958-.41 2.014.053 2.879.39.73 1.202 1.158 2.017 1.292.824.093 1.658.055 2.47-.113.891-.137 1.804-.296 2.58-.754l-2.917-7.04c-.293-.71-.595-1.446-.592-2.216.024-.568.147-1.128.363-1.653.565-1.523 1.385-2.94 2.424-4.188.423.49.39 1.236.743 1.78.312.402.727.712 1.201.897 1.382.674 2.802 1.268 4.253 1.777.185.024.346.138.429.304.083.167.078.364-.015.526l-1.098 4.535c-.243.999-.455 2.154.167 2.962.622.808 2.025 1.19 2.033 2.233-.012.165-.012.33 0 .495.073.488.652.722 1.144.746 1.671.033 3.12-1.15 3.423-2.793.27-1.782-.91-3.425-1.403-5.162-.83-2.922.27-6.35-1.36-8.917-1.32-2.081-3.724-2.647-6.008-2.905-1.602-.189-4.807-.862-5.935.627z" opacity=".1"/>
            <path fill="#493545" d="M12.792 5.677c-.27.371-.248.883-.37 1.346-.287 1.053-1.43 1.713-1.69 2.774-.154.62.024 1.277-.081 1.907-.191 1.16-1.252 1.947-1.845 2.962-.608 1.06-.699 2.34-.245 3.474.139.282.253.576.342.878.068.45.04.909-.083 1.346-.202.96-.41 2.015.053 2.88.39.73 1.202 1.157 2.017 1.292.824.093 1.658.055 2.47-.113.891-.138 1.804-.296 2.58-.754l-2.917-7.04c-.293-.71-.595-1.446-.592-2.216.024-.568.147-1.128.363-1.654.565-1.523 1.385-2.939 2.424-4.187.423.49.39 1.236.743 1.78.312.402.727.712 1.201.897 1.382.674 2.802 1.267 4.253 1.777.185.023.346.137.429.304.083.166.078.364-.015.525l-1.098 4.535c-.243 1-.455 2.155.167 2.963.622.808 2.025 1.19 2.033 2.232-.012.165-.012.33 0 .496.073.487.652.722 1.144.746 1.671.033 3.12-1.15 3.423-2.793.27-1.783-.91-3.425-1.403-5.162-.83-2.922.27-6.35-1.36-8.917-1.32-2.082-3.724-2.647-6.008-2.906-1.602-.188-4.807-.861-5.935.628z"/>
        </g>
        <g fill-rule="nonzero" opacity=".5" transform="translate(65.17 158.887)">
            <path fill="#C0BCCF" d="M36.7 18.566c.008 4.372-1.557 8.601-4.408 11.916-.14.164-.286.326-.434.485-.073.082-.149.163-.226.242-.607.639-1.26 1.232-1.955 1.775l-.049.035c-1.073.84-2.238 1.556-3.474 2.133-.634.298-1.285.558-1.95.78l-.244.079c-.151.05-.307.097-.46.14l-.063.019c-3.304.944-6.807.944-10.112 0h-.027c-.27-.078-.539-.16-.786-.248l-.23-.08c-.87-.308-1.717-.682-2.53-1.121l-.052-.027c-1.293-.7-2.497-1.553-3.587-2.54l-.089-.083c-.556-.504-1.079-1.044-1.564-1.616-.065-.073-.127-.148-.189-.223-.118-.14-.232-.286-.345-.431-4.911-6.322-5.146-15.102-.58-21.678C7.91 1.547 16.218-1.302 23.858 1.09 31.5 3.482 36.7 10.56 36.7 18.566z"/>
            <path fill="url(#prefix__c)" d="M31.834 30.366l-.11-2.423c.47-3.833-.472-4.072-.472-4.072l-1.346-.663-.027-.013-4.519-2.227-.207-.103-.027-.11s.089-.27-.358-.315c-.087-.218-.125-.452-.114-.687.046-.517.437-.924.741-1.346.777-1.15 1.094-2.551.886-3.924-.212-1.36-.725-2.656-1.503-3.792l-.086-.126c.105-.388.159-.789.159-1.19 0-3.1-3.135-5.613-7.002-5.613-3.5 0-6.417 2.071-6.924 4.772-.08.106-.15.217-.212.334-.711 1.33.388 2.324.423 3.652.024.915-.59 1.699-1.078 2.475-.487.775-.848 1.807-.347 2.571.164.254.412.445.56.709.52.918-.345 1.971-.66 2.978-.036.118-.065.237-.086.358l-2.079.34s-.687-.14-1.64 2.353c-.013.03-.025.059-.035.09-.365 1.003-.67 2.027-.916 3.067-.185.759-.355 1.502-.509 2.227-.032.142-.061.285-.091.428.062.075.124.153.188.226.485.583 1.008 1.134 1.565 1.648l.089.086c1.087 1.002 2.292 1.87 3.587 2.583l.051.027c.813.446 1.66.826 2.532 1.139l.229.08c.269.092.522.173.786.254.01.04.017.082.021.124v-.119c3.303.96 6.81.96 10.113 0l.062-.019c.153-.043.31-.091.46-.142l.245-.078c.665-.227 1.316-.492 1.95-.795 1.237-.587 2.403-1.314 3.474-2.168l.048-.035c.695-.552 1.349-1.155 1.955-1.804.08-.079.155-.16.227-.245l-.003-.512z"/>
            <path fill="#444176" d="M11.136 12.908c.024.902-.59 1.672-1.078 2.423-.487.752-.848 1.778-.347 2.529.164.248.412.439.56.697.52.903-.345 1.94-.66 2.93-.363 1.145.06 2.424.824 3.353.765.93 1.82 1.557 2.887 2.109 2.242 1.195 4.65 2.051 7.142 2.542 1.304.24 2.693.347 3.916-.175 1.746-.801 2.717-2.692 2.35-4.578-.309-1.417-1.346-2.556-1.884-3.894-.126-.263-.187-.552-.178-.843.046-.51.436-.908.74-1.32.764-1.122 1.075-2.49.873-3.832-.213-1.341-.726-2.618-1.503-3.732-.277-.462-.643-.865-1.077-1.185-.587-.396-1.314-.51-2.014-.609-2.925-.41-5.955-.856-8.903-1.007-.932-.048-1.616.135-2.077 1.007-.703 1.3.394 2.278.429 3.585z"/>
            <path fill="#C77485" d="M26.197 22.066l-5.55 7.894-5.418-.472s-.178 1.885-2.356-4.947c-1.218-3.821 1.257-2.493 1.745-3.552.487-1.058 1.346-1.993 1.419-2.774.172-1.675-.337-2.628-.337-2.628l5.89-.705c-.266.793-.3 1.646-.097 2.458.738 3.065 4.704 4.726 4.704 4.726z"/>
            <ellipse cx="17.849" cy="9.816" fill="#444176" rx="7.002" ry="5.521"/>
            <path fill="#000" d="M21.49 17.338c-1.56 1.18-3.604 1.51-5.456.877.172-1.675-.337-2.628-.337-2.628l5.89-.705c-.265.792-.299 1.644-.097 2.456z" opacity=".1"/>
            <circle cx="17.938" cy="12.407" r="5.89" fill="#C77485"/>
            <path fill="#000" d="M25.616 22.96l-.138-.538-.118-.474-.175-.7-.032-.13-.027-.107s.14-.423-.784-.286l-.172.03c-.146.03-.315.07-.51.124l-.174.054-.232.072c-.733.24-1.402.643-1.955 1.18-.248.237-.468.503-.654.792-.02.027-.033.05-.049.072-.064.1-.12.205-.17.313 0 2.122-2.122 4.713-2.122 4.713l-2.07-2.992-.041-.06-.493-.716-.175-.232-.06-.08-1.076-1.447-.27-.36-.088-.122-.132-.175-.31-.412-1.212.709-1.616.942-.942 6.127v.17l.03.506.196 3.328v.046L9.7 34.686l.051.027c.814.438 1.66.813 2.532 1.12l.229.08c.269.09.522.17.786.249.01.04.017.08.022.12v-.115c3.304.944 6.807.944 10.112 0l.062-.019c.153-.043.31-.089.46-.14l.245-.078c.665-.222 1.316-.483 1.95-.781l.226-4.82.162-3.477v-.2l-.921-3.691z" opacity=".1"/>
            <path fill="#444176" d="M23.677 31.915c0-.108 0-.216-.019-.323-.019-.108-.016-.202-.03-.305l-.037-.307c-.014-.102-.033-.204-.052-.307-.018-.102-.037-.204-.059-.307 0-.035-.013-.067-.021-.102-.03-.135-.062-.27-.097-.407-.035-.137-.057-.218-.09-.326 0-.048-.026-.097-.042-.142-.016-.046-.046-.157-.07-.235l-.049-.15c-.021-.068-.043-.135-.067-.202-.04-.122-.083-.24-.127-.361-.043-.121-.088-.24-.134-.358-.092-.243-.191-.482-.291-.722-.39-.932-.83-1.85-1.233-2.76-.218-.478-.41-.966-.577-1.463l-.05.073c-.083.124-.156.253-.22.388 0 2.12-2.121 4.712-2.121 4.712l-2.136-3.11-1.869 2.874c-.269.142-.538.632-.748 1.33-.06.188-.116.393-.17.611-.038.146-.073.3-.105.453-.019.078-.035.156-.051.237l-.049.245v.037c-.032.167-.064.34-.094.515s-.065.377-.094.568c-.022.124-.04.248-.057.372-.037.24-.07.482-.102.721-.019.14-.038.27-.054.418l-.065.538c.138.442.291.878.45 1.306.102.235.161.486.175.741 3.305.944 6.808.944 10.112 0v-.027c-.05-.242-.071-.488-.064-.735.054-.691.144-1.379.27-2.06.039-.336.056-.675.05-1.013v-.121c-.008-.102-.01-.2-.013-.296zm0 0c0-.108 0-.216-.019-.323-.019-.108-.016-.202-.03-.305l-.037-.307c-.014-.102-.033-.204-.052-.307-.018-.102-.037-.204-.059-.307 0-.035-.013-.067-.021-.102-.03-.135-.062-.27-.097-.407-.035-.137-.057-.218-.09-.326 0-.048-.026-.097-.042-.142-.016-.046-.046-.157-.07-.235l-.049-.15c-.021-.068-.043-.135-.067-.202-.04-.122-.083-.24-.127-.361-.043-.121-.088-.24-.134-.358-.092-.243-.191-.482-.291-.722-.39-.932-.83-1.85-1.233-2.76-.218-.478-.41-.966-.577-1.463l-.05.073c-.083.124-.156.253-.22.388 0 2.12-2.121 4.712-2.121 4.712l-2.136-3.11-1.869 2.874c-.269.142-.538.632-.748 1.33-.06.188-.116.393-.17.611-.038.146-.073.3-.105.453-.019.078-.035.156-.051.237l-.049.245v.037c-.032.167-.064.34-.094.515s-.065.377-.094.568c-.022.124-.04.248-.057.372-.037.24-.07.482-.102.721-.019.14-.038.27-.054.418l-.065.538c.138.442.291.878.45 1.306.102.235.161.486.175.741 3.305.944 6.808.944 10.112 0v-.027c-.05-.242-.071-.488-.064-.735.054-.691.144-1.379.27-2.06.039-.336.056-.675.05-1.013v-.121c-.008-.102-.01-.2-.013-.296zm0 0c0-.108 0-.216-.019-.323-.019-.108-.016-.202-.03-.305l-.037-.307c-.014-.102-.033-.204-.052-.307-.018-.102-.037-.204-.059-.307 0-.035-.013-.067-.021-.102-.03-.135-.062-.27-.097-.407-.035-.137-.057-.218-.09-.326 0-.048-.026-.097-.042-.142-.016-.046-.046-.157-.07-.235l-.049-.15c-.021-.068-.043-.135-.067-.202-.04-.122-.083-.24-.127-.361-.043-.121-.088-.24-.134-.358-.092-.243-.191-.482-.291-.722-.39-.932-.83-1.85-1.233-2.76-.218-.478-.41-.966-.577-1.463l-.05.073c-.083.124-.156.253-.22.388 0 2.12-2.121 4.712-2.121 4.712l-2.136-3.11-1.869 2.874c-.269.142-.538.632-.748 1.33-.06.188-.116.393-.17.611-.038.146-.073.3-.105.453-.019.078-.035.156-.051.237l-.049.245v.037c-.032.167-.064.34-.094.515s-.065.377-.094.568c-.022.124-.04.248-.057.372-.037.24-.07.482-.102.721-.019.14-.038.27-.054.418l-.065.538c.138.442.291.878.45 1.306.102.235.161.486.175.741 3.305.944 6.808.944 10.112 0v-.027c-.05-.242-.071-.488-.064-.735.054-.691.144-1.379.27-2.06.039-.336.056-.675.05-1.013v-.121c-.008-.102-.01-.2-.013-.296zm2.854-5.055l-.961-3.838-.164-.657-.046-.18-.234-.937v-.024c.005-.042-.001-.084-.02-.122-.034-.07-.123-.142-.33-.161-.08-.006-.159-.006-.237 0-.234.023-.466.066-.693.129-.11.03-.228.062-.355.102l-.232.073h-.021c-.62.204-1.196.524-1.697.943-.33.275-.62.596-.861.953l-.052.073c-.082.124-.154.253-.218.387 0 2.12-2.122 4.713-2.122 4.713l-2.135-3.11-.122-.175-.021-.03-.31-.455-.234-.312-.062-.081-1.104-1.473-.35-.477v-.016l-.121-.164-.232-.307-.808.47-2.02 1.178-.931 6.062v.064l.026.442.2 3.374v.192l-.305 1.214c.814.439 1.66.813 2.532 1.12l.229.081c.269.089.522.17.786.248.01.04.017.08.022.121v-.116c3.304.945 6.807.945 10.112 0l.062-.019c.153-.043.31-.088.46-.14l.245-.078c.665-.222 1.316-.483 1.95-.78l.224-4.816.161-3.439-.01-.032zm-13.244 9.299c.01.04.017.08.022.121v-.116l-.022-.005zm10.39-4.244c0-.108 0-.216-.019-.323-.019-.108-.016-.202-.03-.305l-.037-.307c-.014-.102-.033-.204-.052-.307-.018-.102-.037-.204-.059-.307 0-.035-.013-.067-.021-.102-.03-.135-.062-.27-.097-.407-.035-.137-.057-.218-.09-.326 0-.048-.026-.097-.042-.142-.016-.046-.046-.157-.07-.235l-.049-.15c-.021-.068-.043-.135-.067-.202-.04-.122-.083-.24-.127-.361-.043-.121-.088-.24-.134-.358-.092-.243-.191-.482-.291-.722-.39-.932-.83-1.85-1.233-2.76-.218-.478-.41-.966-.577-1.463l-.05.073c-.083.124-.156.253-.22.388 0 2.12-2.121 4.712-2.121 4.712l-2.136-3.11-1.869 2.874c-.269.142-.538.632-.748 1.33-.06.188-.116.393-.17.611-.038.146-.073.3-.105.453-.019.078-.035.156-.051.237l-.049.245v.037c-.032.167-.064.34-.094.515s-.065.377-.094.568c-.022.124-.04.248-.057.372-.037.24-.07.482-.102.721-.019.14-.038.27-.054.418l-.065.538c.138.442.291.878.45 1.306.102.235.161.486.175.741 3.305.944 6.808.944 10.112 0v-.027c-.05-.242-.071-.488-.064-.735.054-.691.144-1.379.27-2.06.039-.336.056-.675.05-1.013v-.121c-.008-.102-.01-.2-.013-.296zm0 0c0-.108 0-.216-.019-.323-.019-.108-.016-.202-.03-.305l-.037-.307c-.014-.102-.033-.204-.052-.307-.018-.102-.037-.204-.059-.307 0-.035-.013-.067-.021-.102-.03-.135-.062-.27-.097-.407-.035-.137-.057-.218-.09-.326 0-.048-.026-.097-.042-.142-.016-.046-.046-.157-.07-.235l-.049-.15c-.021-.068-.043-.135-.067-.202-.04-.122-.083-.24-.127-.361-.043-.121-.088-.24-.134-.358-.092-.243-.191-.482-.291-.722-.39-.932-.83-1.85-1.233-2.76-.218-.478-.41-.966-.577-1.463l-.05.073c-.083.124-.156.253-.22.388 0 2.12-2.121 4.712-2.121 4.712l-2.136-3.11-1.869 2.874c-.269.142-.538.632-.748 1.33-.06.188-.116.393-.17.611-.038.146-.073.3-.105.453-.019.078-.035.156-.051.237l-.049.245v.037c-.032.167-.064.34-.094.515s-.065.377-.094.568c-.022.124-.04.248-.057.372-.037.24-.07.482-.102.721-.019.14-.038.27-.054.418l-.065.538c.138.442.291.878.45 1.306.102.235.161.486.175.741 3.305.944 6.808.944 10.112 0v-.027c-.05-.242-.071-.488-.064-.735.054-.691.144-1.379.27-2.06.039-.336.056-.675.05-1.013v-.121c-.008-.102-.01-.2-.013-.296zm0 0c0-.108 0-.216-.019-.323-.019-.108-.016-.202-.03-.305l-.037-.307c-.014-.102-.033-.204-.052-.307-.018-.102-.037-.204-.059-.307 0-.035-.013-.067-.021-.102-.03-.135-.062-.27-.097-.407-.035-.137-.057-.218-.09-.326 0-.048-.026-.097-.042-.142-.016-.046-.046-.157-.07-.235l-.049-.15c-.021-.068-.043-.135-.067-.202-.04-.122-.083-.24-.127-.361-.043-.121-.088-.24-.134-.358-.092-.243-.191-.482-.291-.722-.39-.932-.83-1.85-1.233-2.76-.218-.478-.41-.966-.577-1.463l-.05.073c-.083.124-.156.253-.22.388 0 2.12-2.121 4.712-2.121 4.712l-2.136-3.11-1.869 2.874c-.269.142-.538.632-.748 1.33-.06.188-.116.393-.17.611-.038.146-.073.3-.105.453-.019.078-.035.156-.051.237l-.049.245v.037c-.032.167-.064.34-.094.515s-.065.377-.094.568c-.022.124-.04.248-.057.372-.037.24-.07.482-.102.721-.019.14-.038.27-.054.418l-.065.538c.138.442.291.878.45 1.306.102.235.161.486.175.741 3.305.944 6.808.944 10.112 0v-.027c-.05-.242-.071-.488-.064-.735.054-.691.144-1.379.27-2.06.039-.336.056-.675.05-1.013v-.121c-.008-.102-.01-.2-.013-.296zm0 0c0-.108 0-.216-.019-.323-.019-.108-.016-.202-.03-.305l-.037-.307c-.014-.102-.033-.204-.052-.307-.018-.102-.037-.204-.059-.307 0-.035-.013-.067-.021-.102-.03-.135-.062-.27-.097-.407-.035-.137-.057-.218-.09-.326 0-.048-.026-.097-.042-.142-.016-.046-.046-.157-.07-.235l-.049-.15c-.021-.068-.043-.135-.067-.202-.04-.122-.083-.24-.127-.361-.043-.121-.088-.24-.134-.358-.092-.243-.191-.482-.291-.722-.39-.932-.83-1.85-1.233-2.76-.218-.478-.41-.966-.577-1.463l-.05.073c-.083.124-.156.253-.22.388 0 2.12-2.121 4.712-2.121 4.712l-2.136-3.11-1.869 2.874c-.269.142-.538.632-.748 1.33-.06.188-.116.393-.17.611-.038.146-.073.3-.105.453-.019.078-.035.156-.051.237l-.049.245v.037c-.032.167-.064.34-.094.515s-.065.377-.094.568c-.022.124-.04.248-.057.372-.037.24-.07.482-.102.721-.019.14-.038.27-.054.418l-.065.538c.138.442.291.878.45 1.306.102.235.161.486.175.741 3.305.944 6.808.944 10.112 0v-.027c-.05-.242-.071-.488-.064-.735.054-.691.144-1.379.27-2.06.039-.336.056-.675.05-1.013v-.121c-.008-.102-.01-.2-.013-.296zm0 0c0-.108 0-.216-.019-.323-.019-.108-.016-.202-.03-.305l-.037-.307c-.014-.102-.033-.204-.052-.307-.018-.102-.037-.204-.059-.307 0-.035-.013-.067-.021-.102-.03-.135-.062-.27-.097-.407-.035-.137-.057-.218-.09-.326 0-.048-.026-.097-.042-.142-.016-.046-.046-.157-.07-.235l-.049-.15c-.021-.068-.043-.135-.067-.202-.04-.122-.083-.24-.127-.361-.043-.121-.088-.24-.134-.358-.092-.243-.191-.482-.291-.722-.39-.932-.83-1.85-1.233-2.76-.218-.478-.41-.966-.577-1.463l-.05.073c-.083.124-.156.253-.22.388 0 2.12-2.121 4.712-2.121 4.712l-2.136-3.11-1.869 2.874c-.269.142-.538.632-.748 1.33-.06.188-.116.393-.17.611-.038.146-.073.3-.105.453-.019.078-.035.156-.051.237l-.049.245v.037c-.032.167-.064.34-.094.515s-.065.377-.094.568c-.022.124-.04.248-.057.372-.037.24-.07.482-.102.721-.019.14-.038.27-.054.418l-.065.538c.138.442.291.878.45 1.306.102.235.161.486.175.741 3.305.944 6.808.944 10.112 0v-.027c-.05-.242-.071-.488-.064-.735.054-.691.144-1.379.27-2.06.039-.336.056-.675.05-1.013v-.121c-.008-.102-.01-.2-.013-.296zm0 0c0-.108 0-.216-.019-.323-.019-.108-.016-.202-.03-.305l-.037-.307c-.014-.102-.033-.204-.052-.307-.018-.102-.037-.204-.059-.307 0-.035-.013-.067-.021-.102-.03-.135-.062-.27-.097-.407-.035-.137-.057-.218-.09-.326 0-.048-.026-.097-.042-.142-.016-.046-.046-.157-.07-.235l-.049-.15c-.021-.068-.043-.135-.067-.202-.04-.122-.083-.24-.127-.361-.043-.121-.088-.24-.134-.358-.092-.243-.191-.482-.291-.722-.39-.932-.83-1.85-1.233-2.76-.218-.478-.41-.966-.577-1.463l-.05.073c-.083.124-.156.253-.22.388 0 2.12-2.121 4.712-2.121 4.712l-2.136-3.11-1.869 2.874c-.269.142-.538.632-.748 1.33-.06.188-.116.393-.17.611-.038.146-.073.3-.105.453-.019.078-.035.156-.051.237l-.049.245v.037c-.032.167-.064.34-.094.515s-.065.377-.094.568c-.022.124-.04.248-.057.372-.037.24-.07.482-.102.721-.019.14-.038.27-.054.418l-.065.538c.138.442.291.878.45 1.306.102.235.161.486.175.741 3.305.944 6.808.944 10.112 0v-.027c-.05-.242-.071-.488-.064-.735.054-.691.144-1.379.27-2.06.039-.336.056-.675.05-1.013v-.121c-.008-.102-.01-.2-.013-.296zm0 0c0-.108 0-.216-.019-.323-.019-.108-.016-.202-.03-.305l-.037-.307c-.014-.102-.033-.204-.052-.307-.018-.102-.037-.204-.059-.307 0-.035-.013-.067-.021-.102-.03-.135-.062-.27-.097-.407-.035-.137-.057-.218-.09-.326 0-.048-.026-.097-.042-.142-.016-.046-.046-.157-.07-.235l-.049-.15c-.021-.068-.043-.135-.067-.202-.04-.122-.083-.24-.127-.361-.043-.121-.088-.24-.134-.358-.092-.243-.191-.482-.291-.722-.39-.932-.83-1.85-1.233-2.76-.218-.478-.41-.966-.577-1.463l-.05.073c-.083.124-.156.253-.22.388 0 2.12-2.121 4.712-2.121 4.712l-2.136-3.11-1.869 2.874c-.269.142-.538.632-.748 1.33-.06.188-.116.393-.17.611-.038.146-.073.3-.105.453-.019.078-.035.156-.051.237l-.049.245v.037c-.032.167-.064.34-.094.515s-.065.377-.094.568c-.022.124-.04.248-.057.372-.037.24-.07.482-.102.721-.019.14-.038.27-.054.418l-.065.538c.138.442.291.878.45 1.306.102.235.161.486.175.741 3.305.944 6.808.944 10.112 0v-.027c-.05-.242-.071-.488-.064-.735.054-.691.144-1.379.27-2.06.039-.336.056-.675.05-1.013v-.121c-.008-.102-.01-.2-.013-.296zm0 0c0-.108 0-.216-.019-.323-.019-.108-.016-.202-.03-.305l-.037-.307c-.014-.102-.033-.204-.052-.307-.018-.102-.037-.204-.059-.307 0-.035-.013-.067-.021-.102-.03-.135-.062-.27-.097-.407-.035-.137-.057-.218-.09-.326 0-.048-.026-.097-.042-.142-.016-.046-.046-.157-.07-.235l-.049-.15c-.021-.068-.043-.135-.067-.202-.04-.122-.083-.24-.127-.361-.043-.121-.088-.24-.134-.358-.092-.243-.191-.482-.291-.722-.39-.932-.83-1.85-1.233-2.76-.218-.478-.41-.966-.577-1.463l-.05.073c-.083.124-.156.253-.22.388 0 2.12-2.121 4.712-2.121 4.712l-2.136-3.11-1.869 2.874c-.269.142-.538.632-.748 1.33-.06.188-.116.393-.17.611-.038.146-.073.3-.105.453-.019.078-.035.156-.051.237l-.049.245v.037c-.032.167-.064.34-.094.515s-.065.377-.094.568c-.022.124-.04.248-.057.372-.037.24-.07.482-.102.721-.019.14-.038.27-.054.418l-.065.538c.138.442.291.878.45 1.306.102.235.161.486.175.741 3.305.944 6.808.944 10.112 0v-.027c-.05-.242-.071-.488-.064-.735.054-.691.144-1.379.27-2.06.039-.336.056-.675.05-1.013v-.121c-.008-.102-.01-.2-.013-.296z"/>
            <path fill="#000" d="M16.193 25.02l-.18-.024c-.273-.036-.543-.09-.808-.161l-.1-.027c-.657-.186-1.376-.52-1.538-1.107-.048-.189-.042-.388.016-.574.09-.32.214-.63.367-.926v-.016c.02-.042.042-.082.067-.121.222-.435.558-.8.972-1.059l-.323.052-2.736.444-4.241.684s-.755-.15-1.78 2.677c0 .035-.025.067-.036.105-.247.692-.509 1.556-.778 2.636-.186.749-.355 1.484-.512 2.198-.045.215-.091.428-.134.638.485.572 1.008 1.112 1.564 1.616l.09.083c1.09.987 2.293 1.84 3.586 2.54l.052.027c.813.438 1.66.813 2.531 1.12l.229.08c.048-.497.102-1.05.167-1.615 0-.057 0-.113.021-.17l.065-.538c.016-.138.035-.27.054-.418.032-.24.065-.482.102-.721.016-.124.035-.248.057-.372.03-.191.062-.382.094-.568.032-.186.062-.348.094-.515v-.037l.049-.245c.016-.081.032-.16.05-.237.033-.154.068-.307.106-.453.054-.218.11-.423.17-.611.215-.698.466-1.188.748-1.33l1.87-2.874.077-.121.035-.054-.067-.005z" opacity=".1"/>
            <path fill="#F1D2D7" d="M16.034 25.026l-1.985 3.049c-.269.137-.522.614-.735 1.29-.062.199-.124.417-.183.646-.268 1.163-.471 2.34-.609 3.525 0 .054 0 .108-.021.161-.092.75-.167 1.484-.229 2.133-.872-.307-1.718-.681-2.531-1.12l-.052-.027c-1.293-.7-2.497-1.552-3.587-2.54l-.089-.083c-.556-.504-1.079-1.043-1.564-1.616-.065-.072-.127-.148-.189-.223l.092-.42c.153-.714.323-1.446.509-2.192.245-1.023.55-2.03.915-3.017.01-.029.022-.058.035-.086.954-2.453 1.64-2.316 1.64-2.316l4.479-.721 2.828-.458-.09.05c-.311.223-.576.505-.778.83l-.078.132c-.032.052-.062.108-.094.165-.157.3-.281.616-.372.942-.083.255-.06.533.065.77.27.523 1.034.808 1.662.964l.105.027c.282.064.568.109.856.135z"/>
            <path fill="#000" d="M31.597 30.469l-.11-2.392c.47-3.77-.472-4.004-.472-4.004l-1.12-.539h-.03L25.36 21.35l-.175-.086-.054-.024-.587-.286-.372-.18-.694-.337-.235-.113V21.26c0 .269.025.584.046.95.049.921.137 2.155.296 3.609.09.843.202 1.764.342 2.752.084.584.143 1.166.18 1.734.122 1.914.062 3.834-.177 5.736l.245-.078c.665-.222 1.316-.483 1.95-.78 1.235-.577 2.4-1.293 3.474-2.134l.048-.035c.695-.542 1.348-1.136 1.955-1.774l-.005-.77z" opacity=".1"/>
            <path fill="#F1D2D7" d="M31.834 30.469l-.11-2.397c.47-3.77-.472-4.005-.472-4.005l-1.346-.651h-.027l-4.519-2.192-.207-.1-.04-.019-.332-.162-.439-.212-.867-.42v.856c0 .27.024.622.048 1.023.046.86.127 1.985.27 3.323.097.919.218 1.94.377 3.038.082.587.141 1.168.177 1.743.12 1.886.064 3.779-.167 5.655.665-.222 1.316-.483 1.95-.781 1.236-.576 2.401-1.292 3.474-2.133l.049-.035c.694-.543 1.347-1.136 1.955-1.775.079-.079.154-.16.226-.242v-.514z"/>
            <path fill="#000" d="M16.643 10.683c.84-.143 1.686-.45 2.52-.27.7.146 1.285.612 1.926.935.619.312 1.296.49 1.987.525.253.034.509-.017.73-.142.334-.232.383-.706.326-1.11-.162-1.147-.878-2.133-1.616-3.027-.294-.382-.634-.726-1.012-1.026-.967-.713-2.246-.835-3.445-.78-1.368.061-2.757.325-3.945 1.012-.808.463-2.66 1.923-2.017 2.978.676 1.104 3.487 1.086 4.546.905z" opacity=".1"/>
            <path fill="#444176" d="M16.643 10.414c.84-.143 1.686-.45 2.52-.27.7.146 1.285.612 1.926.935.619.311 1.296.49 1.987.525.253.033.509-.017.73-.143.334-.231.383-.705.326-1.11-.162-1.146-.878-2.132-1.616-3.026-.294-.382-.634-.727-1.012-1.026-.967-.714-2.246-.835-3.445-.781-1.368.062-2.757.326-3.945 1.013-.808.463-2.66 1.922-2.017 2.978.676 1.104 3.487 1.085 4.546.905z"/>
        </g>
        <path fill="url(#prefix__d)" fill-rule="nonzero" d="M155.766 156.113h.04c.06 1.804.315 3.436.808 3.889 1.174 1.077 6.043-1.077 5.71-2.38l-.324-1.27c1.314-.163 2.437-.538 2.884-1.308l.846 2.607.059.186h.065c.557 5.283 1.82 16.255 2.83 17.725 1.347 1.947 2.895 10.384 2.895 10.384l2.895 17.308s1.115 9.964 1.783 11.041c.194.206.452.34.732.38-.39 1.169-.95 2.534-1.616 3.296-1.346 1.514-3.118 4.543-4.677 4.328-1.56-.216-2.004 3.03.891 3.46 1.602.24 4.158-.05 6.121-.358 0 .867.603 1.864 2.12 2.09 2.895.434 8.908-.864 8.908-.864s5.117-2.155 5.346-3.68c.161-1.103-.622-5.536-1.059-7.86.808-1.295-.054-12.474-.054-12.474l-1.559-21.417s.892-11.898 0-14.063c-.557-1.347-.765-7.54-.843-11.97l1.078.07c.06-.074.117-.153.166-.235l.27.02s1.346-1.514.223-3.895c-.826-1.77-.67-9.757-.538-13.734l.159-1.885c.059-.058.104-.128.132-.205 2.088-.282 4.118-.897 6.013-1.82.572-.238 1.104-.561 1.578-.96 1.115-1.076.444-7.572-1.783-17.307s-4.23-8.87-4.23-8.87-5.346-.434-7.797-3.68c-2.45-3.245-4.096-3.201-4.096-3.201-.062-.426-.105-.827-.134-1.202 0-.14-.022-.269-.03-.409.833-.775 1.469-1.738 1.853-2.809.5-.269 1.117-.358 1.597-.697.122-.089.233-.192.331-.307.48-.443.785-1.045.86-1.694.076-.71.042-1.426-.1-2.125-.17-1.034-.42-2.092-1.024-2.906-.603-.813-1.505-1.303-2.375-1.758-2.356-1.237-4.717-2.462-7.085-3.673-.463-.283-.98-.466-1.517-.539-.947-.054-1.798.595-2.563 1.212-.305.24-.598.496-.875.767-.237.21-.452.442-.644.692-.894 1.199-1.274 3.456-.88 4.953.123.474.39.611.718.606-.487.969-.74 2.039-.74 3.124.01 2.413 1.25 4.655 3.288 5.949 0 .15 0 .298.013.441.011.553-.007 1.106-.053 1.656 0 0-5.925 3.202-6.59 4.716-.665 1.513-3.119 2.596-3.119 2.596s-4.677 2.38-4.677 10.818l-2.451 11.897-.444 22.716s.307-.27.807-.652c-.016.15-.03.307-.043.466-.066.868-.089 1.739-.067 2.61l-.032.204zm29.919 58.791c-.092.347-.226.808-.396 1.346-.075-.447-.15-.888-.226-1.308.194-.02.401-.03.622-.038z"/>
        <path fill="#53526B" fill-rule="nonzero" d="M177.595 212.114s-.859 3.862-2.154 5.362c-1.296 1.5-2.992 4.505-4.49 4.29-1.497-.216-1.93 3.002.86 3.43 2.79.429 8.566-.856 8.566-.856s4.934-2.154 5.146-3.646c.213-1.492-1.287-9.224-1.287-9.224l-6.64.644z"/>
        <path fill="#000" fill-rule="nonzero" d="M177.595 212.114s-.859 3.862-2.154 5.362c-1.296 1.5-2.992 4.505-4.49 4.29-1.497-.216-1.93 3.002.86 3.43 2.79.429 8.566-.856 8.566-.856s4.934-2.154 5.146-3.646c.213-1.492-1.287-9.224-1.287-9.224l-6.64.644z" opacity=".05"/>
        <path fill="#53526B" fill-rule="nonzero" d="M185.531 213.83s-.859 3.861-2.154 5.361c-1.295 1.5-3 4.506-4.495 4.29-1.494-.215-1.93 3.003.86 3.431 2.79.428 8.58-.859 8.58-.859s4.933-2.154 5.146-3.646c.212-1.492-1.288-9.224-1.288-9.224l-6.649.646z"/>
        <path fill="#5F5D7E" fill-rule="nonzero" d="M166.013 155.066s1.715 18.444 3.002 20.375c1.288 1.93 2.788 10.295 2.788 10.295l2.787 17.157s1.077 9.867 1.715 10.94c.638 1.071 8.599.61 8.599.61l-4.95-56.806-13.941-2.571z"/>
        <path fill="#000" fill-rule="nonzero" d="M166.013 155.066s1.715 18.444 3.002 20.375c1.288 1.93 2.788 10.295 2.788 10.295l2.787 17.157s1.077 9.867 1.715 10.94c.638 1.071 8.599.61 8.599.61l-4.95-56.806-13.941-2.571z" opacity=".05"/>
        <path fill="#5F5D7E" fill-rule="nonzero" d="M162.582 146.268l.56 1.78 3.03 9.616.059.183h.016c.407.092 8.992 2.066 10.845 2.672.1.03.198.068.293.11.86.428 1.931 15.87 1.931 15.87s.644 14.585 1.077 15.657c.434 1.072 2.155 23.16 3.218 22.519 1.064-.64 8.793 0 8.793 0 .859-.859 0-12.439 0-12.439l-1.524-21.229s.859-11.795 0-13.941c-.86-2.147-.86-16.514-.86-16.514l-17.555-2.744-1.697-.27-8.186-1.27z"/>
        <path fill="#000" fill-rule="nonzero" d="M163.142 148.05l3.03 9.617.072.188c.407.092 8.992 2.066 10.845 2.672h.186l-4.797-12.716-.137-.367-1.56.1-7.64.506z" opacity=".02"/>
        <path fill="#000" fill-rule="nonzero" d="M183.172 103.376s-7.936 8.58-12.87 1.5l-4.718 3.218.86 4.934-2.79 37.317s7.292-.216 12.438 1.5c2.927 1.038 6.19.285 8.365-1.931l-.848-32.812 1.93-10.08-2.367-3.646z" opacity=".1"/>
        <path fill="#53526B" fill-rule="nonzero" d="M183.172 102.732s-7.936 8.58-12.87 1.5l-4.718 3.219.86 4.933-2.79 37.317s7.292-.215 12.438 1.5c2.927 1.038 6.19.285 8.365-1.93l-.848-32.812 1.93-10.08-2.367-3.647z"/>
        <g fill="#E82127" fill-rule="nonzero">
            <path d="M2.518.905L2.518 2.257 2.087 2.257 2.087 1.357.512 1.357.512 2.257.078 2.257.078.908 2.518.905M2.133.469H.469C.246.415.072.243.016.022h2.567c-.057.22-.23.393-.453.447" transform="translate(164.811 140.036)"/>
            <g>
                <path d="M2.908.038c-.057.219-.23.389-.45.444h-.7l-.034.014v1.766h-.431V.496l-.04-.014h-.7C.332.425.161.256.102.038h2.805" transform="translate(164.811 140.036) translate(14.273)"/>
            </g>
        </g>
        <path fill="#D6DBE6" fill-rule="nonzero" d="M166.656 147.13s0 5.576-1.287 7.936c-1.287 2.359-8.793 1.077-8.793 1.077l1.5-7.937 8.58-1.077z"/>
        <path fill="#E5AB9D" fill-rule="nonzero" d="M157.392 160.002c1.131 1.077 5.82-1.077 5.497-2.36-.227-.907-1.018-4.155-1.468-5.997l-.312-1.295s-2.747-.859-3.717 0c-.353.312-.6 1.543-.716 3.03-.2 2.582.003 5.938.716 6.622zM167.72 106.592l7.505 5.79s11.152-.644 8.365-6.006c-1.214-2.358-1.946-4.934-2.155-7.578-.09-.975-.09-1.957 0-2.933 0 0-10.295-9.425-9.008 1.288.102.822.161 1.649.178 2.477.154 8.041-4.885 6.962-4.885 6.962z"/>
        <path fill="#000" fill-rule="nonzero" d="M172.449 97.155c.101.823.16 1.65.178 2.478 1.155.765 2.51 1.172 3.896 1.169 1.92 0 3.334-1.87 4.61-3.11-.142-1.78.321-1.824.321-1.824s-10.292-9.436-9.005 1.287z" opacity=".1"/>
        <circle cx="176.523" cy="93.296" r="7.077" fill="#E5AB9D" fill-rule="nonzero"/>
        <path fill="#000" fill-rule="nonzero" d="M181.562 100.05s1.18.108 3.539 3.323c2.359 3.216 7.505 3.647 7.505 3.647s1.93-.86 4.074 8.792 2.788 16.086 1.716 17.157c-1.072 1.072-5.362 2.578-7.516 2.578 0 0-.644 13.51.428 15.87 1.072 2.359-.216 3.861-.216 3.861l-9.425-.643s-3.218-4.075-3.862-11.152c-.643-7.077-2.787-27.24-1.715-29.599 1.072-2.359 5.79-8.364 5.577-9.008-.213-.644-.105-4.826-.105-4.826z" opacity=".1"/>
        <path fill="#D6DBE6" fill-rule="nonzero" d="M181.586 99.986s1.586-.043 3.945 3.175c2.36 3.218 7.503 3.646 7.503 3.646s1.931-.86 4.075 8.793c2.143 9.651 2.787 16.085 1.715 17.157-1.072 1.072-5.362 2.574-7.505 2.574 0 0-.644 13.511.428 15.87 1.072 2.36-.216 3.862-.216 3.862l-9.425-.644s-3.218-4.074-3.862-11.151c-.643-7.078-2.792-27.237-1.72-29.586 1.071-2.348 5.79-8.364 5.577-9.008-.213-.643-.515-4.688-.515-4.688z"/>
        <path fill="#000" fill-rule="nonzero" d="M156.679 153.377c1.026-.784 2.962-2.004 4.745-1.734l-.313-1.296s-2.747-.859-3.716 0c-.358.313-.603 1.54-.716 3.03zM172.567 101.338s-5.47 3.538-6.113 5.04c-.643 1.504-3.002 2.575-3.002 2.575s-4.503 2.36-4.503 10.724l-2.36 11.795 10.724 15.014s1.288-15.014 1.931-18.66c.644-3.646 1.5-10.503 1.5-10.503s3.218-4.074 2.787-5.146c-.43-1.072-.964-10.84-.964-10.84z" opacity=".1"/>
        <path fill="#D6DBE6" fill-rule="nonzero" d="M172.567 101.273s-5.703 3.175-6.344 4.675-3.003 2.574-3.003 2.574-4.503 2.36-4.503 10.724l-2.359 11.795-.428 22.52s3.862-3.647 6.649-1.932c2.787 1.716 4.503-5.577 4.503-5.577s1.287-15.013 1.93-18.66c.644-3.646 1.5-10.502 1.5-10.502s3.219-4.075 2.788-5.147c-.431-1.072-.733-10.47-.733-10.47z"/>
        <path fill="#000" fill-rule="nonzero" d="M170.31 84.687c.364-.462.784-.877 1.25-1.234.738-.614 1.554-1.255 2.47-1.2.518.068 1.015.246 1.46.522 2.28 1.2 4.553 2.414 6.82 3.64.838.453 1.703.932 2.287 1.746.584.813.821 1.858.986 2.881.137.693.17 1.403.097 2.106-.067.69-.402 1.325-.932 1.77-.612.444-1.45.446-1.96 1.028-.297.337-.426.808-.636 1.217-.21.41-.574.808-.989.736-.414-.073-.665-.512-.724-.956-.026-.45 0-.903.078-1.347.08-.808-.021-1.664-.49-2.265-.323-.41-.786-.657-1.099-1.077-.748-1.013-.406-2.693-1.228-3.644-.485-.505-1.205-.711-1.885-.538-.665.14-1.274.5-1.885.808-.826.416-1.69.75-2.583.996-.748.205-1.615.695-1.871-.301-.39-1.463-.027-3.7.835-4.888z" opacity=".1"/>
        <path fill="#865A61" fill-rule="nonzero" d="M170.526 84.474c.363-.462.783-.876 1.25-1.233.737-.614 1.553-1.255 2.47-1.202.517.07 1.015.248 1.459.523 2.278 1.201 4.171.065 6.821 3.64.566.766 1.702.933 2.286 1.746.585.813.822 1.858.986 2.881.137.694.17 1.403.097 2.106-.067.69-.401 1.325-.932 1.77-.611.444-1.449.447-1.96 1.028-.297.337-.426.808-.636 1.218-.21.409-.573.808-.988.735-.415-.073-.665-.512-.725-.956-.026-.45 0-.902.078-1.347.081-.808-.021-1.664-.49-2.265-.323-.409-.786-.657-1.098-1.077-.749-1.012-.407-2.693-1.228-3.643-.486-.506-1.206-.712-1.885-.539-.666.14-1.274.501-1.886.808-.825.417-1.69.75-2.582.996-.749.205-1.616.695-1.872-.301-.393-1.463-.027-3.703.835-4.888z"/>
        <path fill="#000" fill-rule="nonzero" d="M189.856 117.207s2.86 7.293.714 10.296l-4.718-1.078s4.29 1.288 3.646-1.287c-.643-2.574.358-7.93.358-7.93zM191.418 135.226s-6.22.428-7.936-.859c2.259 1.725 4.927 2.833 7.742 3.218l.194-2.359zM164.62 121.492s-3.218 9.867-3.002 11.367c.215 1.5.643 18.016.643 18.016l.644-.215-.216-18.016 1.931-11.152z" opacity=".1"/>
        <path fill="url(#prefix__e)" fill-rule="nonzero" d="M192.175 133.551l-73.519-59.246c-.864-.864-2.036-1.348-3.258-1.346h-3.124c12.957-16.606 10.758-40.426-5.021-54.378-15.78-13.952-39.69-13.218-54.584 1.675C37.776 35.15 37.042 59.061 50.994 74.84c13.952 15.78 37.772 17.979 54.378 5.02v3.122c-.002 1.222.482 2.394 1.346 3.259l73.519 59.246c.86.866 2.03 1.354 3.25 1.354 1.221 0 2.391-.488 3.25-1.354l5.42-5.413c1.799-1.799 1.807-4.714.018-6.523zM80.828 72.96c-13.556 0-24.544-10.989-24.544-24.544 0-13.556 10.988-24.544 24.544-24.544 13.555 0 24.544 10.988 24.544 24.544.005 6.511-2.58 12.758-7.183 17.362-4.604 4.605-10.85 7.19-17.361 7.187v-.005z"/>
        <path fill="#71C0CC" fill-rule="nonzero" d="M192.714 133.013l-73.52-59.246c-.863-.864-2.036-1.349-3.258-1.347h-3.124c12.958-16.605 10.759-40.426-5.02-54.378-15.78-13.952-39.69-13.218-54.584 1.676C38.314 34.61 37.58 58.522 51.532 74.3c13.952 15.78 37.773 17.979 54.378 5.021v3.121c-.002 1.222.483 2.395 1.347 3.259l73.519 59.246c.86.867 2.03 1.354 3.25 1.354 1.22 0 2.39-.487 3.25-1.354l5.419-5.413c1.8-1.799 1.808-4.713.019-6.522zM81.366 72.42c-13.555 0-24.544-10.989-24.544-24.544s10.989-24.544 24.544-24.544c13.556 0 24.544 10.989 24.544 24.544.005 6.512-2.579 12.758-7.183 17.363-4.604 4.605-10.85 7.19-17.36 7.186v-.005z"/>
        <path fill="#E5AB9D" fill-rule="nonzero" d="M187.247 127.61s-10.732-12.307-9.224-3.861c1.078 6.005 5.147 9.223 7.078 9.867 1.93.643 2.146-6.006 2.146-6.006z"/>
        <path fill="#D6DBE6" fill-rule="nonzero" d="M189.821 116.243s.216 7.937 1.288 9.008c1.071 1.072-.644 2.36-.644 2.36l-4.29-1.078s1.077 7.077-3.43 6.221c0 0 3.002 2.787 6.005 3.218 3.002.431 2.787-.643 2.787-.643l4.502-5.362-6.218-13.724z"/>
        <path fill="#D6DBE6" fill-rule="nonzero" d="M191.009 135.444L195.361 134.488 194.779 132.482 192.086 131.405 188.585 133.021z"/>
        <path fill="#C0BCCF" fill-rule="nonzero" d="M63.98 47.65c-.006 3.96 1.277 7.816 3.657 10.982.24.32.49.63.752.934.14.165.285.326.433.485.074.083.15.164.226.243.608.638 1.261 1.231 1.956 1.774l.048.035c1.073.841 2.239 1.557 3.474 2.133.634.298 1.285.559 1.95.781l.245.078c.15.051.307.097.46.14l.062.019c.078.022.156.046.237.065 1.565.425 3.18.64 4.802.638.27 0 .552 0 .827-.019 1.438-.062 2.864-.295 4.246-.695h.027c.256-.075.51-.153.76-.24h.027l.229-.08c.871-.307 1.718-.682 2.531-1.12l.051-.027c.09-.049.178-.097.27-.149 1.193-.67 2.308-1.472 3.323-2.39l.089-.084c.556-.504 1.079-1.044 1.564-1.616l.057-.068c.046-.05.089-.102.132-.156.118-.14.231-.285.344-.43 4.908-6.324 5.14-15.102.574-21.675-4.567-6.574-12.873-9.42-20.512-7.029-7.638 2.392-12.839 9.467-12.84 17.47z"/>
        <path fill="url(#prefix__f)" fill-rule="nonzero" d="M70.317 53.54s3.972-.337 5.793-2.863c1.774-2.459 2.98-2.488 3.04-2.488.046-.329.078-.641.1-.932v-.04c-.073.057-.16.095-.25.11-.356.054-.669-.283-.846-.641-.137-.374-.318-.73-.54-1.061-.438-.507-1.157-.51-1.68-.894-.46-.389-.75-.942-.807-1.54-.03-.224-.04-.449-.033-.674-.008-.48.03-.962.113-1.435.14-.892.348-1.805.846-2.507.498-.703 1.473-.854 1.958-1.52 2.27-3.112 3.888-2.124 5.84-3.169.38-.24.806-.395 1.25-.455.784-.046 1.484.514 2.114 1.047.404.313.765.675 1.078 1.078.562.789.878 2.111.85 3.269.016.43-.026.86-.123 1.28-.156.619-.58.578-1.042.438 1.182 2.49.375 5.47-1.902 7.023v.283.062c-.007.43.007.86.043 1.287.046.025 4.4 2.494 4.894 3.666.492 1.171 2.318 2.02 2.318 2.02s2.007 1.077 2.963 4.459l-.057.067c-.485.583-1.007 1.134-1.565 1.648l-.089.087c-1.013.93-2.127 1.743-3.323 2.423-.086.051-.175.103-.269.151l-.051.027c-.813.446-1.66.827-2.532 1.14l-.228.083h-.027c-.25.088-.504.167-.76.242h-.027c-1.382.406-2.808.643-4.247.706-.269.013-.538.019-.826.019-1.617.009-3.228-.2-4.789-.623-.08-.019-.158-.043-.236-.064l-.062-.02c-.154-.042-.31-.09-.46-.142l-.246-.078c-.668-.227-1.321-.493-1.958-.797-1.237-.587-2.403-1.315-3.474-2.168l-.048-.035c-.695-.553-1.349-1.156-1.955-1.804-.078-.08-.153-.162-.227-.248-.148-.162-.293-.326-.433-.493-.27-.31-.512-.625-.751-.95 1.44-5.53 2.663-4.975 2.663-4.975z"/>
        <path fill="#FDC2CC" fill-rule="nonzero" d="M84.051 58.048l5.793-4.468s-3.88.832-3.77-5.37c-.002-.02-.002-.041 0-.062 0-.56.053-1.174.134-1.85.994-8.276-6.95-.994-6.95-.994.068.733.068 1.47 0 2.203v.06c-.157 2.039-.72 4.026-1.654 5.846-2.157 4.136 6.447 4.635 6.447 4.635z"/>
        <path fill="#000" fill-rule="nonzero" d="M79.998 46.357c.983.956 1.584 2.693 3.062 2.693 1.07.003 2.116-.311 3.008-.902 0-.56.054-1.174.135-1.85.994-8.276-6.95-.994-6.95-.994s.85-.293.745 1.053z" opacity=".1"/>
        <circle cx="83.06" cy="43.32" r="5.461" fill="#FDC2CC" fill-rule="nonzero"/>
        <path fill="#000" fill-rule="nonzero" d="M88.298 36.326c-.313-.396-.675-.75-1.077-1.056-.63-.525-1.33-1.077-2.114-1.029-.444.06-.87.212-1.25.448-1.952 1.028-3.57.056-5.84 3.115-.486.655-1.458.808-1.959 1.495-.5.687-.703 1.589-.845 2.467-.118.594-.146 1.202-.084 1.804.06.591.35 1.135.808 1.513.523.38 1.242.383 1.68.881.221.325.402.675.54 1.042.177.35.49.682.845.63.355-.05.568-.436.62-.807.021-.385-.001-.771-.068-1.15-.067-.682.019-1.425.42-1.94.27-.352.673-.562.94-.92.64-.865.35-2.316 1.053-3.119.418-.43 1.035-.601 1.616-.45.566.162 1.109.396 1.615.695.707.357 1.448.643 2.211.854.641.175 1.385.595 1.603-.27.342-1.27.021-3.188-.714-4.203z" opacity=".1"/>
        <path fill="#865A61" fill-rule="nonzero" d="M88.298 36.057c-.313-.396-.675-.751-1.077-1.056-.63-.525-1.33-1.077-2.114-1.029-.444.06-.87.212-1.25.447-1.952 1.029-3.57.057-5.84 3.116-.486.654-1.458.808-1.959 1.495-.5.686-.703 1.588-.845 2.466-.118.594-.146 1.202-.084 1.805.06.59.35 1.135.808 1.513.523.38 1.242.383 1.68.88.221.325.402.675.54 1.043.177.35.49.681.845.63.355-.051.568-.436.62-.808.021-.384-.001-.77-.068-1.15-.067-.681.019-1.424.42-1.939.27-.352.673-.562.94-.92.64-.865.35-2.317 1.053-3.12.418-.429 1.035-.6 1.616-.449.566.162 1.109.395 1.615.695.707.357 1.448.643 2.211.854.641.175 1.385.595 1.603-.27.342-1.27.021-3.188-.714-4.203z"/>
        <path fill="#000" fill-rule="nonzero" d="M77.599 60.921l-.108 4.134c1.565.425 3.18.64 4.802.638.269 0 .552 0 .826-.019 1.439-.062 2.864-.295 4.247-.695h.027c.256-.075.51-.153.76-.24h.027l.228-.08c.872-.307 1.718-.682 2.532-1.12l.051-.027.27-.148-.418-5.572.665-3.822-3.64-2.48c-.205.295-.434.573-.685.83-.36.375-.78.686-1.244.92-2.612 1.288-5.585-.759-7.064-2.025l-.336-.298c-.383-.348-.6-.585-.6-.585l-1.821 2.812 1.48 7.777z" opacity=".1"/>
        <path fill="#53526B" fill-rule="nonzero" d="M77.599 61.19l-.108 4.134c1.565.425 3.18.64 4.802.638.269 0 .552 0 .826-.019 1.439-.062 2.864-.295 4.247-.694h.027c.256-.076.51-.154.76-.24h.027l.228-.08c.872-.308 1.718-.682 2.532-1.121l.051-.027.27-.148-.418-5.572.665-3.821-3.64-2.48c-.205.295-.434.572-.685.829-.36.375-.78.687-1.244.92-2.612 1.288-5.585-.759-7.064-2.024l-.336-.3c-.383-.347-.6-.584-.6-.584l-1.821 2.812 1.48 7.777z"/>
        <path fill="#555388" fill-rule="nonzero" d="M67.637 58.632c.24.32.49.63.752.934.14.165.285.326.433.485.074.083.15.164.226.243.608.638 1.261 1.231 1.956 1.774l.048.035c1.073.841 2.239 1.557 3.474 2.133.634.298 1.285.559 1.95.781l.245.078c.15.051.307.097.46.14l.062.019c.078.022.156.046.237.065 1.565.425 3.18.64 4.802.638.27 0 .552 0 .827-.019.21-3.436.269-6.194-.06-6.902-.197-.41-.419-.808-.665-1.19-1.33-2.139-3.77-5.354-3.638-5.76.051-.2.088-.402.11-.607.143-1.06.286-3.002.286-3.002-.06 0-1.266.03-3.04 2.448-1.821 2.483-5.793 2.814-5.793 2.814s-1.215-.539-2.672 4.893zM87.692 61.522s.2 1.586.46 3.482h.028l.228-.081c.872-.307 1.718-.682 2.532-1.12l.051-.027c.089-.049.178-.097.27-.149 1.193-.67 2.308-1.472 3.322-2.39l.09-.084c.556-.504 1.078-1.044 1.564-1.616l.057-.068c-.962-3.336-2.963-4.386-2.963-4.386s-1.82-.83-2.318-1.988c-.499-1.158-4.896-3.606-4.896-3.606v.02c0 .206-.07 2.105-.175 4.014-.068 1.242-.151 2.489-.248 3.28-.021.258-.068.512-.14.76-.342.816 2.138 3.959 2.138 3.959z"/>
    </g>
</svg>
