{
  "project_info": {
    "project_number": "585174735892",
    "firebase_url": "https://emp-wirvsbeerflu.firebaseio.com",
    "project_id": "emp-wirvsbeerflu",
    "storage_bucket": "emp-wirvsbeerflu.appspot.com"
  },
  "client": [
    {
      "client_info": {
        "mobilesdk_app_id": "1:585174735892:android:89a124f867d572f7f69b01",
        "android_client_info": {
          "package_name": "com.helpinghands.helpinghands"
        }
      },
      "oauth_client": [
        {
          "client_id": "585174735892-h17oca155bbfpqh2n3pu522p906spji2.apps.googleusercontent.com",
          "client_type": 1,
          "android_info": {
            "package_name": "com.helpinghands.helpinghands",
            "certificate_hash": "07ed2dcd9546aacc6a14eed04a3bb4f91f5d3cd8"
          }
        },
        {
          "client_id": "585174735892-2p5vgbg70tdfhr4mpbachu9h57llnqqv.apps.googleusercontent.com",
          "client_type": 3
        }
      ],
      "api_key": [
        {
          "current_key": "AIzaSyCqmYLGqC6xEk7dJvy0ol7v2IweQTKSoAI"
        }
      ],
      "services": {
        "appinvite_service": {
          "other_platform_oauth_client": [
            {
              "client_id": "585174735892-2p5vgbg70tdfhr4mpbachu9h57llnqqv.apps.googleusercontent.com",
              "client_type": 3
            }
          ]
        }
      }
    }
  ],
  "configuration_version": "1"
}